<?xml version="1.0" encoding="UTF-8"?>
<!DOCTYPE svg PUBLIC '-//W3C//DTD SVG 1.0//EN'
          'http://www.w3.org/TR/2001/REC-SVG-20010904/DTD/svg10.dtd'>
<svg fill-opacity="0" xmlns:xlink="http://www.w3.org/1999/xlink" color-rendering="auto" color-interpolation="auto" text-rendering="auto" stroke="rgb(0,0,0)" stroke-linecap="square" width="1090" stroke-miterlimit="10" shape-rendering="auto" stroke-opacity="0" fill="rgb(0,0,0)" stroke-dasharray="none" font-weight="normal" stroke-width="1" height="646" xmlns="http://www.w3.org/2000/svg" font-family="'Dialog'" font-style="normal" stroke-linejoin="miter" font-size="12px" stroke-dashoffset="0" image-rendering="auto"
><!--Generated by the Batik Graphics2D SVG Generator--><defs id="genericDefs"
  /><g
  ><defs id="defs1"
    ><clipPath clipPathUnits="userSpaceOnUse" id="clipPath1"
      ><path d="M-7 -7 L121 -7 L121 51 L-7 51 L-7 -7 Z"
      /></clipPath
      ><clipPath clipPathUnits="userSpaceOnUse" id="clipPath2"
      ><path d="M0 0 L0 25 L110 25 L110 0 Z"
      /></clipPath
      ><clipPath clipPathUnits="userSpaceOnUse" id="clipPath3"
      ><path d="M0 0 L0 15 L110 15 L110 0 Z"
      /></clipPath
      ><clipPath clipPathUnits="userSpaceOnUse" id="clipPath4"
      ><path d="M-7 -7 L418 -7 L418 117 L-7 117 L-7 -7 Z"
      /></clipPath
      ><clipPath clipPathUnits="userSpaceOnUse" id="clipPath5"
      ><path d="M0 0 L0 91 L407 91 L407 0 Z"
      /></clipPath
      ><clipPath clipPathUnits="userSpaceOnUse" id="clipPath6"
      ><path d="M0 0 L0 15 L407 15 L407 0 Z"
      /></clipPath
      ><clipPath clipPathUnits="userSpaceOnUse" id="clipPath7"
      ><path d="M-7 -7 L228 -7 L228 69 L-7 69 L-7 -7 Z"
      /></clipPath
      ><clipPath clipPathUnits="userSpaceOnUse" id="clipPath8"
      ><path d="M0 0 L0 43 L217 43 L217 0 Z"
      /></clipPath
      ><clipPath clipPathUnits="userSpaceOnUse" id="clipPath9"
      ><path d="M0 0 L0 15 L217 15 L217 0 Z"
      /></clipPath
      ><clipPath clipPathUnits="userSpaceOnUse" id="clipPath10"
      ><path d="M-7 -7 L263 -7 L263 51 L-7 51 L-7 -7 Z"
      /></clipPath
      ><clipPath clipPathUnits="userSpaceOnUse" id="clipPath11"
      ><path d="M0 0 L0 25 L252 25 L252 0 Z"
      /></clipPath
      ><clipPath clipPathUnits="userSpaceOnUse" id="clipPath12"
      ><path d="M0 0 L0 15 L252 15 L252 0 Z"
      /></clipPath
      ><clipPath clipPathUnits="userSpaceOnUse" id="clipPath13"
      ><path d="M-7 -7 L233 -7 L233 79 L-7 79 L-7 -7 Z"
      /></clipPath
      ><clipPath clipPathUnits="userSpaceOnUse" id="clipPath14"
      ><path d="M0 0 L0 53 L222 53 L222 0 Z"
      /></clipPath
      ><clipPath clipPathUnits="userSpaceOnUse" id="clipPath15"
      ><path d="M0 0 L0 15 L222 15 L222 0 Z"
      /></clipPath
      ><clipPath clipPathUnits="userSpaceOnUse" id="clipPath16"
      ><path d="M-7 -7 L91 -7 L91 51 L-7 51 L-7 -7 Z"
      /></clipPath
      ><clipPath clipPathUnits="userSpaceOnUse" id="clipPath17"
      ><path d="M0 0 L0 25 L80 25 L80 0 Z"
      /></clipPath
      ><clipPath clipPathUnits="userSpaceOnUse" id="clipPath18"
      ><path d="M0 0 L0 15 L80 15 L80 0 Z"
      /></clipPath
      ><clipPath clipPathUnits="userSpaceOnUse" id="clipPath19"
      ><path d="M-7 -7 L174 -7 L174 51 L-7 51 L-7 -7 Z"
      /></clipPath
      ><clipPath clipPathUnits="userSpaceOnUse" id="clipPath20"
      ><path d="M0 0 L0 25 L163 25 L163 0 Z"
      /></clipPath
      ><clipPath clipPathUnits="userSpaceOnUse" id="clipPath21"
      ><path d="M0 0 L0 15 L163 15 L163 0 Z"
      /></clipPath
      ><clipPath clipPathUnits="userSpaceOnUse" id="clipPath22"
      ><path d="M-7 -7 L251 -7 L251 91 L-7 91 L-7 -7 Z"
      /></clipPath
      ><clipPath clipPathUnits="userSpaceOnUse" id="clipPath23"
      ><path d="M0 0 L0 65 L240 65 L240 0 Z"
      /></clipPath
      ><clipPath clipPathUnits="userSpaceOnUse" id="clipPath24"
      ><path d="M0 0 L0 15 L240 15 L240 0 Z"
      /></clipPath
      ><clipPath clipPathUnits="userSpaceOnUse" id="clipPath25"
      ><path d="M-7 -7 L136 -7 L136 51 L-7 51 L-7 -7 Z"
      /></clipPath
      ><clipPath clipPathUnits="userSpaceOnUse" id="clipPath26"
      ><path d="M0 0 L0 25 L125 25 L125 0 Z"
      /></clipPath
      ><clipPath clipPathUnits="userSpaceOnUse" id="clipPath27"
      ><path d="M0 0 L0 15 L125 15 L125 0 Z"
      /></clipPath
      ><clipPath clipPathUnits="userSpaceOnUse" id="clipPath28"
      ><path d="M0 0 L347 0 L347 104 L0 104 L0 0 Z"
      /></clipPath
      ><clipPath clipPathUnits="userSpaceOnUse" id="clipPath29"
      ><path d="M0 0 L0 104 L347 104 L347 0 Z"
      /></clipPath
      ><clipPath clipPathUnits="userSpaceOnUse" id="clipPath30"
      ><path d="M0 0 L104 0 L104 162 L0 162 L0 0 Z"
      /></clipPath
      ><clipPath clipPathUnits="userSpaceOnUse" id="clipPath31"
      ><path d="M0 0 L0 162 L104 162 L104 0 Z"
      /></clipPath
      ><clipPath clipPathUnits="userSpaceOnUse" id="clipPath32"
      ><path d="M0 0 L123 0 L123 314 L0 314 L0 0 Z"
      /></clipPath
      ><clipPath clipPathUnits="userSpaceOnUse" id="clipPath33"
      ><path d="M0 0 L0 314 L123 314 L123 0 Z"
      /></clipPath
      ><clipPath clipPathUnits="userSpaceOnUse" id="clipPath34"
      ><path d="M0 0 L176 0 L176 415 L0 415 L0 0 Z"
      /></clipPath
      ><clipPath clipPathUnits="userSpaceOnUse" id="clipPath35"
      ><path d="M0 0 L0 415 L176 415 L176 0 Z"
      /></clipPath
      ><clipPath clipPathUnits="userSpaceOnUse" id="clipPath36"
      ><path d="M0 0 L104 0 L104 173 L0 173 L0 0 Z"
      /></clipPath
      ><clipPath clipPathUnits="userSpaceOnUse" id="clipPath37"
      ><path d="M0 0 L0 173 L104 173 L104 0 Z"
      /></clipPath
      ><clipPath clipPathUnits="userSpaceOnUse" id="clipPath38"
      ><path d="M0 0 L105 0 L105 161 L0 161 L0 0 Z"
      /></clipPath
      ><clipPath clipPathUnits="userSpaceOnUse" id="clipPath39"
      ><path d="M0 0 L0 161 L105 161 L105 0 Z"
      /></clipPath
      ><clipPath clipPathUnits="userSpaceOnUse" id="clipPath40"
      ><path d="M0 0 L513 0 L513 104 L0 104 L0 0 Z"
      /></clipPath
      ><clipPath clipPathUnits="userSpaceOnUse" id="clipPath41"
      ><path d="M0 0 L0 104 L513 104 L513 0 Z"
      /></clipPath
      ><clipPath clipPathUnits="userSpaceOnUse" id="clipPath42"
      ><path d="M0 0 L288 0 L288 104 L0 104 L0 0 Z"
      /></clipPath
      ><clipPath clipPathUnits="userSpaceOnUse" id="clipPath43"
      ><path d="M0 0 L0 104 L288 104 L288 0 Z"
      /></clipPath
      ><clipPath clipPathUnits="userSpaceOnUse" id="clipPath44"
      ><path d="M0 0 L104 0 L104 342 L0 342 L0 0 Z"
      /></clipPath
      ><clipPath clipPathUnits="userSpaceOnUse" id="clipPath45"
      ><path d="M0 0 L0 342 L104 342 L104 0 Z"
      /></clipPath
      ><clipPath clipPathUnits="userSpaceOnUse" id="clipPath46"
      ><path d="M0 0 L104 0 L104 289 L0 289 L0 0 Z"
      /></clipPath
      ><clipPath clipPathUnits="userSpaceOnUse" id="clipPath47"
      ><path d="M0 0 L0 289 L104 289 L104 0 Z"
      /></clipPath
      ><clipPath clipPathUnits="userSpaceOnUse" id="clipPath48"
      ><path d="M0 0 L301 0 L301 194 L0 194 L0 0 Z"
      /></clipPath
      ><clipPath clipPathUnits="userSpaceOnUse" id="clipPath49"
      ><path d="M0 0 L0 194 L301 194 L301 0 Z"
      /></clipPath
      ><clipPath clipPathUnits="userSpaceOnUse" id="clipPath50"
      ><path d="M0 0 L104 0 L104 216 L0 216 L0 0 Z"
      /></clipPath
      ><clipPath clipPathUnits="userSpaceOnUse" id="clipPath51"
      ><path d="M0 0 L0 216 L104 216 L104 0 Z"
      /></clipPath
      ><clipPath clipPathUnits="userSpaceOnUse" id="clipPath52"
      ><path d="M0 0 L662 0 L662 305 L0 305 L0 0 Z"
      /></clipPath
      ><clipPath clipPathUnits="userSpaceOnUse" id="clipPath53"
      ><path d="M0 0 L0 305 L662 305 L662 0 Z"
      /></clipPath
      ><clipPath clipPathUnits="userSpaceOnUse" id="clipPath54"
      ><path d="M0 0 L354 0 L354 191 L0 191 L0 0 Z"
      /></clipPath
      ><clipPath clipPathUnits="userSpaceOnUse" id="clipPath55"
      ><path d="M0 0 L0 191 L354 191 L354 0 Z"
      /></clipPath
      ><clipPath clipPathUnits="userSpaceOnUse" id="clipPath56"
      ><path d="M0 0 L165 0 L165 370 L0 370 L0 0 Z"
      /></clipPath
      ><clipPath clipPathUnits="userSpaceOnUse" id="clipPath57"
      ><path d="M0 0 L0 370 L165 370 L165 0 Z"
      /></clipPath
      ><clipPath clipPathUnits="userSpaceOnUse" id="clipPath58"
      ><path d="M0 0 L791 0 L791 193 L0 193 L0 0 Z"
      /></clipPath
      ><clipPath clipPathUnits="userSpaceOnUse" id="clipPath59"
      ><path d="M0 0 L0 193 L791 193 L791 0 Z"
      /></clipPath
      ><clipPath clipPathUnits="userSpaceOnUse" id="clipPath60"
      ><path d="M0 0 L268 0 L268 164 L0 164 L0 0 Z"
      /></clipPath
      ><clipPath clipPathUnits="userSpaceOnUse" id="clipPath61"
      ><path d="M0 0 L0 164 L268 164 L268 0 Z"
      /></clipPath
    ></defs
    ><g fill="white" text-rendering="geometricPrecision" fill-opacity="1" stroke-opacity="1" stroke="white"
    ><rect x="0" width="1090" height="646" y="0" stroke="none"
    /></g
    ><g font-size="11px" transform="translate(27,93)" fill-opacity="1" fill="rgb(122,207,245)" text-rendering="geometricPrecision" image-rendering="optimizeQuality" font-family="sans-serif" stroke="rgb(122,207,245)" font-weight="bold" stroke-opacity="1"
    ><rect x="0" width="110" height="40" y="0" clip-path="url(#clipPath1)" stroke="none"
    /></g
    ><g fill-opacity="1" text-rendering="geometricPrecision" stroke="black" stroke-linecap="butt" transform="translate(27,93)" stroke-miterlimit="0" stroke-opacity="1" fill="black" font-weight="bold" font-family="sans-serif" stroke-linejoin="round" font-size="11px" image-rendering="optimizeQuality"
    ><rect fill="none" x="0" width="110" height="40" y="0" clip-path="url(#clipPath1)"
      /><line y2="15" fill="none" x1="0" clip-path="url(#clipPath1)" x2="110" y1="15"
    /></g
    ><g font-size="11px" transform="translate(27,93)" fill-opacity="1" fill="black" text-rendering="geometricPrecision" image-rendering="optimizeQuality" font-family="sans-serif" stroke="black" font-weight="bold" stroke-opacity="1"
    ><text x="5" xml:space="preserve" y="12" clip-path="url(#clipPath3)" stroke="none"
      >LoadTransactionUI</text
    ></g
    ><g font-size="11px" transform="translate(382,63)" fill-opacity="1" fill="rgb(122,207,245)" text-rendering="geometricPrecision" image-rendering="optimizeQuality" font-family="sans-serif" stroke="rgb(122,207,245)" font-weight="bold" stroke-opacity="1"
    ><rect x="0" width="407" height="106" y="0" clip-path="url(#clipPath4)" stroke="none"
    /></g
    ><g fill-opacity="1" text-rendering="geometricPrecision" stroke="black" stroke-linecap="butt" transform="translate(382,63)" stroke-miterlimit="0" stroke-opacity="1" fill="black" font-weight="bold" font-family="sans-serif" stroke-linejoin="round" font-size="11px" image-rendering="optimizeQuality"
    ><rect fill="none" x="0" width="407" height="106" y="0" clip-path="url(#clipPath4)"
      /><line y2="15" fill="none" x1="0" clip-path="url(#clipPath4)" x2="407" y1="15"
    /></g
    ><g font-size="11px" transform="matrix(1,0,0,1,382,78)" fill-opacity="1" fill="black" text-rendering="geometricPrecision" image-rendering="optimizeQuality" font-family="sans-serif" stroke="black" stroke-opacity="1"
    ><text x="2" xml:space="preserve" y="14" clip-path="url(#clipPath5)" stroke="none"
      >+newLoadTransaction(log : String, emailColab : String, org : String, dtExec : Date)</text
    ></g
    ><g font-size="11px" transform="matrix(1,0,0,1,382,78)" fill-opacity="1" fill="black" text-rendering="geometricPrecision" image-rendering="optimizeQuality" font-family="sans-serif" stroke="black" stroke-opacity="1"
    ><text x="2" xml:space="preserve" y="29" clip-path="url(#clipPath5)" stroke="none"
      >+loadFile(fileName : File) : boolean</text
    ></g
    ><g font-size="11px" transform="matrix(1,0,0,1,382,78)" fill-opacity="1" fill="black" text-rendering="geometricPrecision" image-rendering="optimizeQuality" font-family="sans-serif" stroke="black" stroke-opacity="1"
    ><text x="2" xml:space="preserve" y="44" clip-path="url(#clipPath5)" stroke="none"
      >+createPaymentTransactionByFile() : boolean</text
    ></g
    ><g font-size="11px" transform="translate(382,63)" fill-opacity="1" fill="black" text-rendering="geometricPrecision" image-rendering="optimizeQuality" font-family="sans-serif" stroke="black" font-weight="bold" stroke-opacity="1"
    ><text x="132" xml:space="preserve" y="12" clip-path="url(#clipPath6)" stroke="none"
      >LoadTransactionController</text
    ></g
    ><g font-size="11px" transform="translate(348,229)" fill-opacity="1" fill="rgb(122,207,245)" text-rendering="geometricPrecision" image-rendering="optimizeQuality" font-family="sans-serif" stroke="rgb(122,207,245)" font-weight="bold" stroke-opacity="1"
    ><rect x="0" width="217" height="58" y="0" clip-path="url(#clipPath7)" stroke="none"
    /></g
    ><g fill-opacity="1" text-rendering="geometricPrecision" stroke="black" stroke-linecap="butt" transform="translate(348,229)" stroke-miterlimit="0" stroke-opacity="1" fill="black" font-weight="bold" font-family="sans-serif" stroke-linejoin="round" font-size="11px" image-rendering="optimizeQuality"
    ><rect fill="none" x="0" width="217" height="58" y="0" clip-path="url(#clipPath7)"
      /><line y2="15" fill="none" x1="0" clip-path="url(#clipPath7)" x2="217" y1="15"
    /></g
    ><g font-size="11px" transform="matrix(1,0,0,1,348,244)" fill-opacity="1" fill="black" text-rendering="geometricPrecision" image-rendering="optimizeQuality" font-family="sans-serif" stroke="black" stroke-opacity="1"
    ><text x="2" xml:space="preserve" y="14" clip-path="url(#clipPath8)" stroke="none"
      >-designation : String</text
    ></g
    ><g stroke-linecap="butt" font-size="11px" transform="matrix(1,0,0,1,348,244)" fill-opacity="1" fill="black" text-rendering="geometricPrecision" image-rendering="optimizeQuality" font-family="sans-serif" stroke-linejoin="bevel" stroke="black" stroke-opacity="1" stroke-miterlimit="0"
    ><line y2="19" fill="none" x1="0" clip-path="url(#clipPath8)" x2="217" y1="19"
    /></g
    ><g font-size="11px" transform="matrix(1,0,0,1,348,244)" fill-opacity="1" fill="black" text-rendering="geometricPrecision" image-rendering="optimizeQuality" font-family="sans-serif" stroke="black" stroke-opacity="1"
    ><text x="2" xml:space="preserve" y="33" clip-path="url(#clipPath8)" stroke="none"
      >+getRegisterLoadTransaction()</text
    ></g
    ><g font-size="11px" transform="translate(348,229)" fill-opacity="1" fill="black" text-rendering="geometricPrecision" image-rendering="optimizeQuality" font-family="sans-serif" stroke="black" font-weight="bold" stroke-opacity="1"
    ><text x="83" xml:space="preserve" y="12" clip-path="url(#clipPath9)" stroke="none"
      >Plataform</text
    ></g
    ><g font-size="11px" transform="translate(330,358)" fill-opacity="1" fill="rgb(122,207,245)" text-rendering="geometricPrecision" image-rendering="optimizeQuality" font-family="sans-serif" stroke="rgb(122,207,245)" font-weight="bold" stroke-opacity="1"
    ><rect x="0" width="252" height="40" y="0" clip-path="url(#clipPath10)" stroke="none"
    /></g
    ><g fill-opacity="1" text-rendering="geometricPrecision" stroke="black" stroke-linecap="butt" transform="translate(330,358)" stroke-miterlimit="0" stroke-opacity="1" fill="black" font-weight="bold" font-family="sans-serif" stroke-linejoin="round" font-size="11px" image-rendering="optimizeQuality"
    ><rect fill="none" x="0" width="252" height="40" y="0" clip-path="url(#clipPath10)"
      /><line y2="15" fill="none" x1="0" clip-path="url(#clipPath10)" x2="252" y1="15"
    /></g
    ><g font-size="11px" transform="matrix(1,0,0,1,330,373)" fill-opacity="1" fill="black" text-rendering="geometricPrecision" image-rendering="optimizeQuality" font-family="sans-serif" stroke="black" stroke-opacity="1"
    ><text x="2" xml:space="preserve" y="14" clip-path="url(#clipPath11)" stroke="none"
      >+createLoadTransaction(log : String, emailColab,...</text
    ></g
    ><g font-size="11px" transform="translate(330,358)" fill-opacity="1" fill="black" text-rendering="geometricPrecision" image-rendering="optimizeQuality" font-family="sans-serif" stroke="black" font-weight="bold" stroke-opacity="1"
    ><text x="59" xml:space="preserve" y="12" clip-path="url(#clipPath12)" stroke="none"
      >RegisterLoadTransaction</text
    ></g
    ><g font-size="11px" transform="translate(348,456)" fill-opacity="1" fill="rgb(122,207,245)" text-rendering="geometricPrecision" image-rendering="optimizeQuality" font-family="sans-serif" stroke="rgb(122,207,245)" font-weight="bold" stroke-opacity="1"
    ><rect x="0" width="222" height="68" y="0" clip-path="url(#clipPath13)" stroke="none"
    /></g
    ><g fill-opacity="1" text-rendering="geometricPrecision" stroke="black" stroke-linecap="butt" transform="translate(348,456)" stroke-miterlimit="0" stroke-opacity="1" fill="black" font-weight="bold" font-family="sans-serif" stroke-linejoin="round" font-size="11px" image-rendering="optimizeQuality"
    ><rect fill="none" x="0" width="222" height="68" y="0" clip-path="url(#clipPath13)"
      /><line y2="15" fill="none" x1="0" clip-path="url(#clipPath13)" x2="222" y1="15"
    /></g
    ><g font-size="11px" transform="matrix(1,0,0,1,348,471)" fill-opacity="1" fill="black" text-rendering="geometricPrecision" image-rendering="optimizeQuality" font-family="sans-serif" stroke="black" stroke-opacity="1"
    ><text x="2" xml:space="preserve" y="14" clip-path="url(#clipPath14)" stroke="none"
      >+getListFreelancer() : List&lt;String&gt;</text
    ></g
    ><g font-size="11px" transform="matrix(1,0,0,1,348,471)" fill-opacity="1" fill="black" text-rendering="geometricPrecision" image-rendering="optimizeQuality" font-family="sans-serif" stroke="black" stroke-opacity="1"
    ><text x="2" xml:space="preserve" y="29" clip-path="url(#clipPath14)" stroke="none"
      >+getListTask() : List&lt;String&gt;</text
    ></g
    ><g font-size="11px" transform="matrix(1,0,0,1,348,471)" fill-opacity="1" fill="black" text-rendering="geometricPrecision" image-rendering="optimizeQuality" font-family="sans-serif" stroke="black" stroke-opacity="1"
    ><text x="2" xml:space="preserve" y="44" clip-path="url(#clipPath14)" stroke="none"
      >+getListPaymentTransaction() : List&lt;String&gt;</text
    ></g
    ><g font-size="11px" transform="translate(348,456)" fill-opacity="1" fill="black" text-rendering="geometricPrecision" image-rendering="optimizeQuality" font-family="sans-serif" stroke="black" font-weight="bold" stroke-opacity="1"
    ><text x="66" xml:space="preserve" y="12" clip-path="url(#clipPath15)" stroke="none"
      >LoadTransaction</text
    ></g
    ><g font-size="11px" transform="translate(976,204)" fill-opacity="1" fill="rgb(122,207,245)" text-rendering="geometricPrecision" image-rendering="optimizeQuality" font-family="sans-serif" stroke="rgb(122,207,245)" font-weight="bold" stroke-opacity="1"
    ><rect x="0" width="110" height="40" y="0" clip-path="url(#clipPath1)" stroke="none"
    /></g
    ><g fill-opacity="1" text-rendering="geometricPrecision" stroke="black" stroke-linecap="butt" transform="translate(976,204)" stroke-miterlimit="0" stroke-opacity="1" fill="black" font-weight="bold" font-family="sans-serif" stroke-linejoin="round" font-size="11px" image-rendering="optimizeQuality"
    ><rect fill="none" x="0" width="110" height="40" y="0" clip-path="url(#clipPath1)"
      /><line y2="15" fill="none" x1="0" clip-path="url(#clipPath1)" x2="110" y1="15"
    /></g
    ><g font-size="11px" transform="translate(976,204)" fill-opacity="1" fill="black" text-rendering="geometricPrecision" image-rendering="optimizeQuality" font-family="sans-serif" stroke="black" font-weight="bold" stroke-opacity="1"
    ><text x="5" xml:space="preserve" y="12" clip-path="url(#clipPath3)" stroke="none"
      >RegisterFreelancer</text
    ></g
    ><g font-size="11px" transform="translate(82,244)" fill-opacity="1" fill="rgb(122,207,245)" text-rendering="geometricPrecision" image-rendering="optimizeQuality" font-family="sans-serif" stroke="rgb(122,207,245)" font-weight="bold" stroke-opacity="1"
    ><rect x="0" width="80" height="40" y="0" clip-path="url(#clipPath16)" stroke="none"
    /></g
    ><g fill-opacity="1" text-rendering="geometricPrecision" stroke="black" stroke-linecap="butt" transform="translate(82,244)" stroke-miterlimit="0" stroke-opacity="1" fill="black" font-weight="bold" font-family="sans-serif" stroke-linejoin="round" font-size="11px" image-rendering="optimizeQuality"
    ><rect fill="none" x="0" width="80" height="40" y="0" clip-path="url(#clipPath16)"
      /><line y2="15" fill="none" x1="0" clip-path="url(#clipPath16)" x2="80" y1="15"
    /></g
    ><g font-size="11px" transform="translate(82,244)" fill-opacity="1" fill="black" text-rendering="geometricPrecision" image-rendering="optimizeQuality" font-family="sans-serif" stroke="black" font-weight="bold" stroke-opacity="1"
    ><text x="4" xml:space="preserve" y="12" clip-path="url(#clipPath18)" stroke="none"
      >RegisterTask</text
    ></g
    ><g font-size="11px" transform="translate(722,358)" fill-opacity="1" fill="rgb(122,207,245)" text-rendering="geometricPrecision" image-rendering="optimizeQuality" font-family="sans-serif" stroke="rgb(122,207,245)" font-weight="bold" stroke-opacity="1"
    ><rect x="0" width="163" height="40" y="0" clip-path="url(#clipPath19)" stroke="none"
    /></g
    ><g fill-opacity="1" text-rendering="geometricPrecision" stroke="black" stroke-linecap="butt" transform="translate(722,358)" stroke-miterlimit="0" stroke-opacity="1" fill="black" font-weight="bold" font-family="sans-serif" stroke-linejoin="round" font-size="11px" image-rendering="optimizeQuality"
    ><rect fill="none" x="0" width="163" height="40" y="0" clip-path="url(#clipPath19)"
      /><line y2="15" fill="none" x1="0" clip-path="url(#clipPath19)" x2="163" y1="15"
    /></g
    ><g font-size="11px" transform="translate(722,358)" fill-opacity="1" fill="black" text-rendering="geometricPrecision" image-rendering="optimizeQuality" font-family="sans-serif" stroke="black" font-weight="bold" stroke-opacity="1"
    ><text x="4" xml:space="preserve" y="12" clip-path="url(#clipPath21)" stroke="none"
      >RegisterPaymentTransaction</text
    ></g
    ><g font-size="11px" transform="translate(2,524)" fill-opacity="1" fill="rgb(122,207,245)" text-rendering="geometricPrecision" image-rendering="optimizeQuality" font-family="sans-serif" stroke="rgb(122,207,245)" font-weight="bold" stroke-opacity="1"
    ><rect x="0" width="240" height="80" y="0" clip-path="url(#clipPath22)" stroke="none"
    /></g
    ><g fill-opacity="1" text-rendering="geometricPrecision" stroke="black" stroke-linecap="butt" transform="translate(2,524)" stroke-miterlimit="0" stroke-opacity="1" fill="black" font-weight="bold" font-family="sans-serif" stroke-linejoin="round" font-size="11px" image-rendering="optimizeQuality"
    ><rect fill="none" x="0" width="240" height="80" y="0" clip-path="url(#clipPath22)"
      /><line y2="15" fill="none" x1="0" clip-path="url(#clipPath22)" x2="240" y1="15"
    /></g
    ><g font-size="11px" transform="matrix(1,0,0,1,2,539)" fill-opacity="1" fill="black" text-rendering="geometricPrecision" image-rendering="optimizeQuality" font-family="sans-serif" stroke="black" stroke-opacity="1"
    ><text x="2" xml:space="preserve" y="14" clip-path="url(#clipPath23)" stroke="none"
      >-briefDescription : String</text
    ></g
    ><g font-size="11px" transform="matrix(1,0,0,1,2,539)" fill-opacity="1" fill="black" text-rendering="geometricPrecision" image-rendering="optimizeQuality" font-family="sans-serif" stroke="black" stroke-opacity="1"
    ><text x="2" xml:space="preserve" y="29" clip-path="url(#clipPath23)" stroke="none"
      >-avaliation : String</text
    ></g
    ><g font-size="11px" transform="matrix(1,0,0,1,2,539)" fill-opacity="1" fill="black" text-rendering="geometricPrecision" image-rendering="optimizeQuality" font-family="sans-serif" stroke="black" stroke-opacity="1"
    ><text x="2" xml:space="preserve" y="44" clip-path="url(#clipPath23)" stroke="none"
      >-assignDuration : Time</text
    ></g
    ><g font-size="11px" transform="matrix(1,0,0,1,2,539)" fill-opacity="1" fill="black" text-rendering="geometricPrecision" image-rendering="optimizeQuality" font-family="sans-serif" stroke="black" stroke-opacity="1"
    ><text x="2" xml:space="preserve" y="59" clip-path="url(#clipPath23)" stroke="none"
      >-costPerHour : double</text
    ></g
    ><g font-size="11px" transform="matrix(1,0,0,1,2,539)" fill-opacity="1" fill="black" text-rendering="geometricPrecision" image-rendering="optimizeQuality" font-family="sans-serif" stroke="black" stroke-opacity="1"
    ><text x="2" xml:space="preserve" y="74" clip-path="url(#clipPath23)" stroke="none"
      >-attribute</text
      ><line stroke-linecap="butt" clip-path="url(#clipPath23)" fill="none" x1="0" x2="240" y1="79" y2="79" stroke-linejoin="bevel" stroke-miterlimit="0"
    /></g
    ><g font-size="11px" transform="translate(2,524)" fill-opacity="1" fill="black" text-rendering="geometricPrecision" image-rendering="optimizeQuality" font-family="sans-serif" stroke="black" font-weight="bold" stroke-opacity="1"
    ><text x="106" xml:space="preserve" y="12" clip-path="url(#clipPath24)" stroke="none"
      >Task</text
    ></g
    ><g font-size="11px" transform="translate(991,431)" fill-opacity="1" fill="rgb(122,207,245)" text-rendering="geometricPrecision" image-rendering="optimizeQuality" font-family="sans-serif" stroke="rgb(122,207,245)" font-weight="bold" stroke-opacity="1"
    ><rect x="0" width="80" height="40" y="0" clip-path="url(#clipPath16)" stroke="none"
    /></g
    ><g fill-opacity="1" text-rendering="geometricPrecision" stroke="black" stroke-linecap="butt" transform="translate(991,431)" stroke-miterlimit="0" stroke-opacity="1" fill="black" font-weight="bold" font-family="sans-serif" stroke-linejoin="round" font-size="11px" image-rendering="optimizeQuality"
    ><rect fill="none" x="0" width="80" height="40" y="0" clip-path="url(#clipPath16)"
      /><line y2="15" fill="none" x1="0" clip-path="url(#clipPath16)" x2="80" y1="15"
    /></g
    ><g font-size="11px" transform="translate(991,431)" fill-opacity="1" fill="black" text-rendering="geometricPrecision" image-rendering="optimizeQuality" font-family="sans-serif" stroke="black" font-weight="bold" stroke-opacity="1"
    ><text x="12" xml:space="preserve" y="12" clip-path="url(#clipPath18)" stroke="none"
      >Freelancer</text
    ></g
    ><g font-size="11px" transform="translate(741,512)" fill-opacity="1" fill="rgb(122,207,245)" text-rendering="geometricPrecision" image-rendering="optimizeQuality" font-family="sans-serif" stroke="rgb(122,207,245)" font-weight="bold" stroke-opacity="1"
    ><rect x="0" width="125" height="40" y="0" clip-path="url(#clipPath25)" stroke="none"
    /></g
    ><g fill-opacity="1" text-rendering="geometricPrecision" stroke="black" stroke-linecap="butt" transform="translate(741,512)" stroke-miterlimit="0" stroke-opacity="1" fill="black" font-weight="bold" font-family="sans-serif" stroke-linejoin="round" font-size="11px" image-rendering="optimizeQuality"
    ><rect fill="none" x="0" width="125" height="40" y="0" clip-path="url(#clipPath25)"
      /><line y2="15" fill="none" x1="0" clip-path="url(#clipPath25)" x2="125" y1="15"
    /></g
    ><g font-size="11px" transform="translate(741,512)" fill-opacity="1" fill="black" text-rendering="geometricPrecision" image-rendering="optimizeQuality" font-family="sans-serif" stroke="black" font-weight="bold" stroke-opacity="1"
    ><text x="4" xml:space="preserve" y="12" clip-path="url(#clipPath27)" stroke="none"
      >PaymenteTransaction</text
    ></g
    ><g fill-opacity="1" text-rendering="geometricPrecision" stroke="black" stroke-linecap="butt" transform="translate(88,63)" stroke-opacity="1" fill="black" stroke-dasharray="5" font-family="sans-serif" stroke-linejoin="round" font-size="11px" stroke-dashoffset="1" image-rendering="optimizeQuality"
    ><line y2="50" fill="none" x1="50" clip-path="url(#clipPath29)" x2="293" y1="50"
      /><line clip-path="url(#clipPath29)" stroke-dashoffset="0" fill="none" x1="293" x2="281" y1="50" y2="44" stroke-dasharray="none"
      /><line clip-path="url(#clipPath29)" stroke-dashoffset="0" fill="none" x1="293" x2="281" y1="50" y2="56" stroke-dasharray="none"
    /></g
    ><g fill-opacity="1" text-rendering="geometricPrecision" stroke="black" stroke-linecap="butt" transform="translate(411,120)" stroke-opacity="1" fill="black" stroke-dasharray="5" font-family="sans-serif" stroke-linejoin="round" font-size="11px" stroke-dashoffset="1" image-rendering="optimizeQuality"
    ><line y2="108" fill="none" x1="50" clip-path="url(#clipPath31)" x2="50" y1="50"
      /><line clip-path="url(#clipPath31)" stroke-dashoffset="0" fill="none" x1="50" x2="56" y1="108" y2="96" stroke-dasharray="none"
      /><line clip-path="url(#clipPath31)" stroke-dashoffset="0" fill="none" x1="50" x2="44" y1="108" y2="96" stroke-dasharray="none"
    /></g
    ><g fill-opacity="1" text-rendering="geometricPrecision" stroke="black" stroke-linecap="butt" transform="translate(534,120)" stroke-opacity="1" fill="black" stroke-dasharray="5" font-family="sans-serif" stroke-linejoin="round" font-size="11px" stroke-dashoffset="1" image-rendering="optimizeQuality"
    ><line y2="256" fill="none" x1="69" clip-path="url(#clipPath33)" x2="69" y1="50"
      /><line y2="260" fill="none" x1="69" clip-path="url(#clipPath33)" x2="50" y1="256"
      /><line clip-path="url(#clipPath33)" stroke-dashoffset="0" fill="none" x1="50" x2="63" y1="260" y2="263" stroke-dasharray="none"
      /><line clip-path="url(#clipPath33)" stroke-dashoffset="0" fill="none" x1="50" x2="60" y1="260" y2="251" stroke-dasharray="none"
    /></g
    ><g fill-opacity="1" text-rendering="geometricPrecision" stroke="black" stroke-linecap="butt" transform="translate(521,120)" stroke-opacity="1" fill="black" stroke-dasharray="5" font-family="sans-serif" stroke-linejoin="round" font-size="11px" stroke-dashoffset="1" image-rendering="optimizeQuality"
    ><line y2="361" fill="none" x1="122" clip-path="url(#clipPath35)" x2="122" y1="50"
      /><line y2="361" fill="none" x1="122" clip-path="url(#clipPath35)" x2="50" y1="361"
      /><line clip-path="url(#clipPath35)" stroke-dashoffset="0" fill="none" x1="50" x2="62" y1="361" y2="367" stroke-dasharray="none"
      /><line clip-path="url(#clipPath35)" stroke-dashoffset="0" fill="none" x1="50" x2="62" y1="361" y2="355" stroke-dasharray="none"
    /></g
    ><g stroke-linecap="butt" font-size="11px" transform="translate(405,238)" fill-opacity="1" fill="black" text-rendering="geometricPrecision" image-rendering="optimizeQuality" font-family="sans-serif" stroke-linejoin="round" stroke="black" stroke-opacity="1"
    ><line y2="119" fill="none" x1="50" clip-path="url(#clipPath37)" x2="50" y1="50"
    /></g
    ><g stroke-linecap="butt" font-size="11px" transform="translate(405,349)" fill-opacity="1" fill="black" text-rendering="geometricPrecision" image-rendering="optimizeQuality" font-family="sans-serif" stroke-linejoin="round" stroke="black" stroke-opacity="1"
    ><line y2="107" fill="none" x1="50" clip-path="url(#clipPath39)" x2="51" y1="50"
    /></g
    ><g stroke-linecap="butt" font-size="11px" transform="translate(516,179)" fill-opacity="1" fill="black" text-rendering="geometricPrecision" image-rendering="optimizeQuality" font-family="sans-serif" stroke-linejoin="round" stroke="black" stroke-opacity="1"
    ><line y2="50" fill="none" x1="50" clip-path="url(#clipPath41)" x2="459" y1="50"
    /></g
    ><g stroke-linecap="butt" font-size="11px" transform="translate(113,217)" fill-opacity="1" fill="black" text-rendering="geometricPrecision" image-rendering="optimizeQuality" font-family="sans-serif" stroke-linejoin="round" stroke="black" stroke-opacity="1"
    ><line y2="50" fill="none" x1="234" clip-path="url(#clipPath43)" x2="50" y1="50"
    /></g
    ><g stroke-linecap="butt" font-size="11px" transform="translate(68,235)" fill-opacity="1" fill="black" text-rendering="geometricPrecision" image-rendering="optimizeQuality" font-family="sans-serif" stroke-linejoin="round" stroke="black" stroke-opacity="1"
    ><line y2="288" fill="none" x1="50" clip-path="url(#clipPath45)" x2="50" y1="50"
    /></g
    ><g stroke-linecap="butt" font-size="11px" transform="translate(981,195)" fill-opacity="1" fill="black" text-rendering="geometricPrecision" image-rendering="optimizeQuality" font-family="sans-serif" stroke-linejoin="round" stroke="black" stroke-opacity="1"
    ><line y2="235" fill="none" x1="50" clip-path="url(#clipPath47)" x2="50" y1="50"
    /></g
    ><g stroke-linecap="butt" font-size="11px" transform="translate(516,217)" fill-opacity="1" fill="black" text-rendering="geometricPrecision" image-rendering="optimizeQuality" font-family="sans-serif" stroke-linejoin="round" stroke="black" stroke-opacity="1"
    ><line y2="50" fill="none" x1="50" clip-path="url(#clipPath49)" x2="247" y1="50"
      /><line y2="140" fill="none" x1="247" clip-path="url(#clipPath49)" x2="247" y1="50"
    /></g
    ><g stroke-linecap="butt" font-size="11px" transform="translate(752,349)" fill-opacity="1" fill="black" text-rendering="geometricPrecision" image-rendering="optimizeQuality" font-family="sans-serif" stroke-linejoin="round" stroke="black" stroke-opacity="1"
    ><line y2="162" fill="none" x1="50" clip-path="url(#clipPath51)" x2="50" y1="50"
    /></g
    ><g fill-opacity="1" text-rendering="geometricPrecision" stroke="black" stroke-linecap="butt" transform="translate(411,-48)" stroke-opacity="1" fill="black" stroke-dasharray="5" font-family="sans-serif" stroke-linejoin="round" font-size="11px" stroke-dashoffset="1" image-rendering="optimizeQuality"
    ><line y2="50" fill="none" x1="50" clip-path="url(#clipPath53)" x2="50" y1="110"
      /><line y2="50" fill="none" x1="50" clip-path="url(#clipPath53)" x2="608" y1="50"
      /><line y2="251" fill="none" x1="608" clip-path="url(#clipPath53)" x2="608" y1="50"
      /><line clip-path="url(#clipPath53)" stroke-dashoffset="0" fill="none" x1="608" x2="614" y1="251" y2="239" stroke-dasharray="none"
      /><line clip-path="url(#clipPath53)" stroke-dashoffset="0" fill="none" x1="608" x2="602" y1="251" y2="239" stroke-dasharray="none"
    /></g
    ><g fill-opacity="1" text-rendering="geometricPrecision" stroke="black" stroke-linecap="butt" transform="translate(81,106)" stroke-opacity="1" fill="black" stroke-dasharray="5" font-family="sans-serif" stroke-linejoin="round" font-size="11px" stroke-dashoffset="1" image-rendering="optimizeQuality"
    ><line y2="50" fill="none" x1="300" clip-path="url(#clipPath55)" x2="50" y1="50"
      /><line y2="137" fill="none" x1="50" clip-path="url(#clipPath55)" x2="50" y1="50"
      /><line clip-path="url(#clipPath55)" stroke-dashoffset="0" fill="none" x1="50" x2="56" y1="137" y2="125" stroke-dasharray="none"
      /><line clip-path="url(#clipPath55)" stroke-dashoffset="0" fill="none" x1="50" x2="44" y1="137" y2="125" stroke-dasharray="none"
    /></g
    ><g fill-opacity="1" text-rendering="geometricPrecision" stroke="black" stroke-linecap="butt" transform="translate(742,41)" stroke-opacity="1" fill="black" stroke-dasharray="5" font-family="sans-serif" stroke-linejoin="round" font-size="11px" stroke-dashoffset="1" image-rendering="optimizeQuality"
    ><line y2="50" fill="none" x1="50" clip-path="url(#clipPath57)" x2="111" y1="50"
      /><line y2="316" fill="none" x1="111" clip-path="url(#clipPath57)" x2="111" y1="50"
      /><line clip-path="url(#clipPath57)" stroke-dashoffset="0" fill="none" x1="111" x2="117" y1="316" y2="304" stroke-dasharray="none"
      /><line clip-path="url(#clipPath57)" stroke-dashoffset="0" fill="none" x1="111" x2="105" y1="316" y2="304" stroke-dasharray="none"
    /></g
    ><g stroke-linecap="butt" font-size="11px" transform="translate(66,503)" fill-opacity="1" fill="black" text-rendering="geometricPrecision" image-rendering="optimizeQuality" font-family="sans-serif" stroke-linejoin="round" stroke="black" stroke-opacity="1"
    ><line y2="139" fill="none" x1="50" clip-path="url(#clipPath59)" x2="50" y1="102"
      /><line y2="135" fill="none" x1="50" clip-path="url(#clipPath59)" x2="737" y1="139"
      /><line y2="50" fill="none" x1="737" clip-path="url(#clipPath59)" x2="737" y1="135"
    /></g
    ><g stroke-linecap="butt" font-size="11px" transform="translate(817,422)" fill-opacity="1" fill="black" text-rendering="geometricPrecision" image-rendering="optimizeQuality" font-family="sans-serif" stroke-linejoin="round" stroke="black" stroke-opacity="1"
    ><line y2="110" fill="none" x1="214" clip-path="url(#clipPath61)" x2="214" y1="50"
      /><line y2="110" fill="none" x1="214" clip-path="url(#clipPath61)" x2="50" y1="110"
    /></g
    ><g font-size="8px" fill-opacity="1" fill="rgb(120,120,120)" text-rendering="geometricPrecision" image-rendering="optimizeQuality" stroke="rgb(120,120,120)" stroke-opacity="1"
    ><text x="0" xml:space="preserve" y="10" stroke="none"
      >Visual Paradigm Standard(Marcel Gavioli(Instituto Superior de Engenharia do Porto))</text
    ></g
  ></g
></svg
>
