<<<<<<< HEAD
Email teste2@test.pt  password : #t4o##o  
  Email teste@test.pt  password : wrwcgn9  
=======
<<<<<<< HEAD
Email teste2@test.pt  password : $6orpil  
  Email teste@test.pt  password : uikzhd3  
=======
Email teste2@test.pt  password : 6kim7m7  
  Email teste@test.pt  password : 7w7qfyc  
>>>>>>> 6a543f6a5f205c52c73e35638d22b6b1e17d4036
>>>>>>> 52e9b6392db6685971fbe76ccb6ce9372422258d
  