<?xml version="1.0" encoding="UTF-8" standalone="no"?><svg xmlns="http://www.w3.org/2000/svg" xmlns:xlink="http://www.w3.org/1999/xlink" contentScriptType="application/ecmascript" contentStyleType="text/css" height="252px" preserveAspectRatio="none" style="width:343px;height:252px;" version="1.1" viewBox="0 0 343 252" width="343px" zoomAndPan="magnify"><defs/><g><rect fill="#7ACFF5" height="61.3516" style="stroke: #000000; stroke-width: 1.0;" width="10" x="24" y="93.6094"/><rect fill="#7ACFF5" height="30" style="stroke: #000000; stroke-width: 1.0;" width="10" x="295" y="115.9609"/><line style="stroke: #000000; stroke-width: 1.0; stroke-dasharray: 5.0,5.0;" x1="29" x2="29" y1="83.6094" y2="163.9609"/><line style="stroke: #000000; stroke-width: 1.0; stroke-dasharray: 5.0,5.0;" x1="300" x2="300" y1="83.6094" y2="163.9609"/><text fill="#000000" font-family="sans-serif" font-size="14" lengthAdjust="spacingAndGlyphs" textLength="36" x="8" y="80.5332">Timer</text><ellipse cx="29" cy="13" fill="#7ACFF5" rx="8" ry="8" style="stroke: #000000; stroke-width: 2.0;"/><path d="M29,21 L29,48 M16,29 L42,29 M29,48 L16,63 M29,48 L42,63 " fill="none" style="stroke: #000000; stroke-width: 2.0;"/><text fill="#000000" font-family="sans-serif" font-size="14" lengthAdjust="spacingAndGlyphs" textLength="36" x="8" y="177.4941">Timer</text><ellipse cx="29" cy="190.5703" fill="#7ACFF5" rx="8" ry="8" style="stroke: #000000; stroke-width: 2.0;"/><path d="M29,198.5703 L29,225.5703 M16,206.5703 L42,206.5703 M29,225.5703 L16,240.5703 M29,225.5703 L42,240.5703 " fill="none" style="stroke: #000000; stroke-width: 2.0;"/><rect fill="#7ACFF5" height="31.6094" style="stroke: #000000; stroke-width: 1.5;" width="64" x="268" y="51"/><text fill="#000000" font-family="sans-serif" font-size="14" lengthAdjust="spacingAndGlyphs" textLength="50" x="275" y="72.5332">:System</text><rect fill="#7ACFF5" height="31.6094" style="stroke: #000000; stroke-width: 1.5;" width="64" x="268" y="162.9609"/><text fill="#000000" font-family="sans-serif" font-size="14" lengthAdjust="spacingAndGlyphs" textLength="50" x="275" y="184.4941">:System</text><rect fill="#7ACFF5" height="61.3516" style="stroke: #000000; stroke-width: 1.0;" width="10" x="24" y="93.6094"/><rect fill="#7ACFF5" height="30" style="stroke: #000000; stroke-width: 1.0;" width="10" x="295" y="115.9609"/><polygon fill="#000000" points="283,111.9609,293,115.9609,283,119.9609,287,115.9609" style="stroke: #000000; stroke-width: 1.0;"/><line style="stroke: #000000; stroke-width: 1.0;" x1="34" x2="289" y1="115.9609" y2="115.9609"/><text fill="#000000" font-family="sans-serif" font-size="13" font-weight="bold" lengthAdjust="spacingAndGlyphs" textLength="7" x="41" y="111.1045">1</text><text fill="#000000" font-family="sans-serif" font-size="13" lengthAdjust="spacingAndGlyphs" textLength="231" x="52" y="111.1045">starts the freelancer notification process</text><!--MD5=[7db35ee264efb6c1d8adf15a6000ef01]
@startuml
actor "Timer" as T
participant ":System" as S

autonumber

skinparam Shadowing false

skinparam sequence {
    ArrowColor black
    
    LifeLineBackgroundColor #7acff5
    LifeLineBorderColor black
    
    ParticipantBorderColor black
    ParticipantBackgroundColor #7acff5
    
    ActorBackgroundColor #7acff5
    ActorBorderColor black

}
activate T
T -> S: starts the freelancer notification process
activate S
deactivate S
@enduml

PlantUML version 1.2020.10(Sun May 17 10:35:57 BST 2020)
(GPL source distribution)
Java Runtime: Java(TM) SE Runtime Environment
JVM: Java HotSpot(TM) 64-Bit Server VM
Java Version: 1.8.0_241-b07
Operating System: Windows 10
Default Encoding: Cp1252
Language: en
Country: GB
--></g></svg>