<?xml version="1.0" encoding="UTF-8" standalone="no"?><svg xmlns="http://www.w3.org/2000/svg" xmlns:xlink="http://www.w3.org/1999/xlink" contentScriptType="application/ecmascript" contentStyleType="text/css" height="260px" preserveAspectRatio="none" style="width:883px;height:260px;" version="1.1" viewBox="0 0 883 260" width="883px" zoomAndPan="magnify"><defs/><g><path d="M6,189.5 L6,248.5547 L311,248.5547 L311,199.5 L301,189.5 L6,189.5 " fill="#FFFFFF" style="stroke: #000000; stroke-width: 1.0;"/><path d="M301,189.5 L301,199.5 L311,199.5 L301,189.5 " fill="#FFFFFF" style="stroke: #000000; stroke-width: 1.0;"/><text fill="#000000" font-family="sans-serif" font-size="13" lengthAdjust="spacingAndGlyphs" textLength="67" x="12" y="207.9951">In this case</text><text fill="#000000" font-family="sans-serif" font-size="13" lengthAdjust="spacingAndGlyphs" text-decoration="underline" textLength="55" x="83" y="207.9951">Statistics</text><text fill="#000000" font-family="sans-serif" font-size="13" lengthAdjust="spacingAndGlyphs" textLength="21" x="142" y="207.9951">and</text><text fill="#000000" font-family="sans-serif" font-size="13" lengthAdjust="spacingAndGlyphs" text-decoration="underline" textLength="94" x="167" y="207.9951">NotifyFreelancer</text><text fill="#000000" font-family="sans-serif" font-size="13" lengthAdjust="spacingAndGlyphs" textLength="27" x="265" y="207.9951">were</text><text fill="#000000" font-family="sans-serif" font-size="13" lengthAdjust="spacingAndGlyphs" textLength="260" x="12" y="224.3467">not considered concepts, therefore they don't</text><text fill="#000000" font-family="sans-serif" font-size="13" lengthAdjust="spacingAndGlyphs" textLength="164" x="12" y="240.6982">appear in the domain model.</text><!--MD5=[99b8db98afdc2c8404e39242ef4c1e65]
class Platform--><rect fill="#7ACFF5" height="53.8359" id="Platform" style="stroke: #000000; stroke-width: 1.5;" width="102" x="107.5" y="100"/><ellipse cx="133.3" cy="116" fill="#7ACFF5" rx="11" ry="11" style="stroke: #000000; stroke-width: 1.0;"/><path d="M136.0656,111.875 Q136.2219,111.6563 136.4094,111.5469 Q136.5969,111.4375 136.8156,111.4375 Q137.1906,111.4375 137.425,111.6953 Q137.6594,111.9531 137.6594,112.5625 L137.6594,114.0156 Q137.6594,114.625 137.425,114.8906 Q137.1906,115.1563 136.8156,115.1563 Q136.4719,115.1563 136.2688,114.9531 Q136.0656,114.7656 135.9563,114.25 Q135.9094,113.8906 135.7219,113.7031 Q135.3938,113.3281 134.7844,113.1094 Q134.175,112.8906 133.55,112.8906 Q132.7844,112.8906 132.1516,113.2188 Q131.5188,113.5469 131.0266,114.2969 Q130.5344,115.0469 130.5344,116.0781 L130.5344,117.1719 Q130.5344,118.4063 131.425,119.2266 Q132.3156,120.0469 133.9094,120.0469 Q134.8469,120.0469 135.5031,119.7969 Q135.8938,119.6406 136.3156,119.2031 Q136.5813,118.9375 136.7297,118.8594 Q136.8781,118.7813 137.0813,118.7813 Q137.4094,118.7813 137.6672,119.0391 Q137.925,119.2969 137.925,119.6406 Q137.925,119.9844 137.5813,120.3906 Q137.0813,120.9688 136.2844,121.2969 Q135.2063,121.75 133.9094,121.75 Q132.3938,121.75 131.1906,121.125 Q130.2063,120.625 129.5188,119.5547 Q128.8313,118.4844 128.8313,117.2031 L128.8313,116.0469 Q128.8313,114.7188 129.4484,113.5703 Q130.0656,112.4219 131.1594,111.8047 Q132.2531,111.1875 133.4875,111.1875 Q134.2219,111.1875 134.8703,111.3516 Q135.5188,111.5156 136.0656,111.875 Z "/><text fill="#000000" font-family="sans-serif" font-size="12" lengthAdjust="spacingAndGlyphs" textLength="46" x="149.7" y="120.9102">Platform</text><line style="stroke: #000000; stroke-width: 1.5;" x1="108.5" x2="208.5" y1="132" y2="132"/><text fill="#000000" font-family="sans-serif" font-size="11" lengthAdjust="spacingAndGlyphs" textLength="90" x="113.5" y="147.4189">-String designation</text><!--MD5=[1f687b5315377fe49fca59b457947463]
class Freelancer--><rect fill="#7ACFF5" height="123.0156" id="Freelancer" style="stroke: #000000; stroke-width: 1.5;" width="124" x="748" y="8.5"/><ellipse cx="777.85" cy="24.5" fill="#7ACFF5" rx="11" ry="11" style="stroke: #000000; stroke-width: 1.0;"/><path d="M780.6156,20.375 Q780.7719,20.1563 780.9594,20.0469 Q781.1469,19.9375 781.3656,19.9375 Q781.7406,19.9375 781.975,20.1953 Q782.2094,20.4531 782.2094,21.0625 L782.2094,22.5156 Q782.2094,23.125 781.975,23.3906 Q781.7406,23.6563 781.3656,23.6563 Q781.0219,23.6563 780.8188,23.4531 Q780.6156,23.2656 780.5063,22.75 Q780.4594,22.3906 780.2719,22.2031 Q779.9438,21.8281 779.3344,21.6094 Q778.725,21.3906 778.1,21.3906 Q777.3344,21.3906 776.7016,21.7188 Q776.0688,22.0469 775.5766,22.7969 Q775.0844,23.5469 775.0844,24.5781 L775.0844,25.6719 Q775.0844,26.9063 775.975,27.7266 Q776.8656,28.5469 778.4594,28.5469 Q779.3969,28.5469 780.0531,28.2969 Q780.4438,28.1406 780.8656,27.7031 Q781.1313,27.4375 781.2797,27.3594 Q781.4281,27.2813 781.6313,27.2813 Q781.9594,27.2813 782.2172,27.5391 Q782.475,27.7969 782.475,28.1406 Q782.475,28.4844 782.1313,28.8906 Q781.6313,29.4688 780.8344,29.7969 Q779.7563,30.25 778.4594,30.25 Q776.9438,30.25 775.7406,29.625 Q774.7563,29.125 774.0688,28.0547 Q773.3813,26.9844 773.3813,25.7031 L773.3813,24.5469 Q773.3813,23.2188 773.9984,22.0703 Q774.6156,20.9219 775.7094,20.3047 Q776.8031,19.6875 778.0375,19.6875 Q778.7719,19.6875 779.4203,19.8516 Q780.0688,20.0156 780.6156,20.375 Z "/><text fill="#000000" font-family="sans-serif" font-size="12" lengthAdjust="spacingAndGlyphs" textLength="59" x="795.15" y="29.4102">Freelancer</text><line style="stroke: #000000; stroke-width: 1.5;" x1="749" x2="871" y1="40.5" y2="40.5"/><text fill="#000000" font-family="sans-serif" font-size="11" lengthAdjust="spacingAndGlyphs" textLength="43" x="754" y="55.9189">-String id</text><text fill="#000000" font-family="sans-serif" font-size="11" lengthAdjust="spacingAndGlyphs" textLength="61" x="754" y="69.7549">-String name</text><text fill="#000000" font-family="sans-serif" font-size="11" lengthAdjust="spacingAndGlyphs" textLength="112" x="754" y="83.5908">-LevelOfExpertise level</text><text fill="#000000" font-family="sans-serif" font-size="11" lengthAdjust="spacingAndGlyphs" textLength="59" x="754" y="97.4268">-String email</text><text fill="#000000" font-family="sans-serif" font-size="11" lengthAdjust="spacingAndGlyphs" textLength="47" x="754" y="111.2627">-String nif</text><text fill="#000000" font-family="sans-serif" font-size="11" lengthAdjust="spacingAndGlyphs" textLength="55" x="754" y="125.0986">-String iban</text><!--MD5=[6d2ec943b6d71edae7dc5e7f192f912f]
class SendEmail--><rect fill="#7ACFF5" height="40" id="SendEmail" style="stroke: #000000; stroke-width: 1.5;" width="93" x="472.5" y="107"/><ellipse cx="487.5" cy="123" fill="#7ACFF5" rx="11" ry="11" style="stroke: #000000; stroke-width: 1.0;"/><path d="M488.4531,119.6406 L488.4531,126.2969 L490.1719,126.2969 Q490.7813,126.2969 491.0469,126.5313 Q491.3125,126.7656 491.3125,127.1563 Q491.3125,127.5313 491.0469,127.7656 Q490.7813,128 490.1719,128 L485.0313,128 Q484.4219,128 484.1563,127.7656 Q483.8906,127.5313 483.8906,127.1406 Q483.8906,126.7656 484.1563,126.5313 Q484.4219,126.2969 485.0313,126.2969 L486.75,126.2969 L486.75,119.6406 L485.0313,119.6406 Q484.4219,119.6406 484.1563,119.4063 Q483.8906,119.1719 483.8906,118.7813 Q483.8906,118.4063 484.1563,118.1719 Q484.4219,117.9375 485.0313,117.9375 L490.1719,117.9375 Q490.7813,117.9375 491.0469,118.1719 Q491.3125,118.4063 491.3125,118.7813 Q491.3125,119.1719 491.0469,119.4063 Q490.7813,119.6406 490.1719,119.6406 L488.4531,119.6406 Z "/><text fill="#000000" font-family="sans-serif" font-size="12" font-style="italic" lengthAdjust="spacingAndGlyphs" textLength="61" x="501.5" y="127.9102">SendEmail</text><line style="stroke: #000000; stroke-width: 1.5;" x1="473.5" x2="564.5" y1="139" y2="139"/><!--MD5=[86c7c362de55a38b660185a1328fe18d]
class Organization--><rect fill="#7ACFF5" height="67.6719" id="Organization" style="stroke: #000000; stroke-width: 1.5;" width="102" x="468" y="182"/><ellipse cx="483.45" cy="198" fill="#7ACFF5" rx="11" ry="11" style="stroke: #000000; stroke-width: 1.0;"/><path d="M486.2156,193.875 Q486.3719,193.6563 486.5594,193.5469 Q486.7469,193.4375 486.9656,193.4375 Q487.3406,193.4375 487.575,193.6953 Q487.8094,193.9531 487.8094,194.5625 L487.8094,196.0156 Q487.8094,196.625 487.575,196.8906 Q487.3406,197.1563 486.9656,197.1563 Q486.6219,197.1563 486.4188,196.9531 Q486.2156,196.7656 486.1063,196.25 Q486.0594,195.8906 485.8719,195.7031 Q485.5438,195.3281 484.9344,195.1094 Q484.325,194.8906 483.7,194.8906 Q482.9344,194.8906 482.3016,195.2188 Q481.6688,195.5469 481.1766,196.2969 Q480.6844,197.0469 480.6844,198.0781 L480.6844,199.1719 Q480.6844,200.4063 481.575,201.2266 Q482.4656,202.0469 484.0594,202.0469 Q484.9969,202.0469 485.6531,201.7969 Q486.0438,201.6406 486.4656,201.2031 Q486.7313,200.9375 486.8797,200.8594 Q487.0281,200.7813 487.2313,200.7813 Q487.5594,200.7813 487.8172,201.0391 Q488.075,201.2969 488.075,201.6406 Q488.075,201.9844 487.7313,202.3906 Q487.2313,202.9688 486.4344,203.2969 Q485.3563,203.75 484.0594,203.75 Q482.5438,203.75 481.3406,203.125 Q480.3563,202.625 479.6688,201.5547 Q478.9813,200.4844 478.9813,199.2031 L478.9813,198.0469 Q478.9813,196.7188 479.5984,195.5703 Q480.2156,194.4219 481.3094,193.8047 Q482.4031,193.1875 483.6375,193.1875 Q484.3719,193.1875 485.0203,193.3516 Q485.6688,193.5156 486.2156,193.875 Z "/><text fill="#000000" font-family="sans-serif" font-size="12" lengthAdjust="spacingAndGlyphs" textLength="69" x="497.55" y="202.9102">Organization</text><line style="stroke: #000000; stroke-width: 1.5;" x1="469" x2="569" y1="214" y2="214"/><text fill="#000000" font-family="sans-serif" font-size="11" lengthAdjust="spacingAndGlyphs" textLength="90" x="474" y="229.4189">-String designation</text><text fill="#000000" font-family="sans-serif" font-size="11" lengthAdjust="spacingAndGlyphs" textLength="47" x="474" y="243.2549">-String nif</text><!--MD5=[22697d4d863c2e08ab1d60ca0d61f844]
link Platform to Freelancer--><path d="M209.78,117.278 C291.312,102.061 457.599,73.291 600,63 C652.308,59.22 665.594,60.987 718,63 C727.659,63.371 737.881,63.963 747.85,64.649 " fill="none" id="Platform-Freelancer" style="stroke: #000000; stroke-width: 1.0;"/><text fill="#000000" font-family="sans-serif" font-size="13" lengthAdjust="spacingAndGlyphs" textLength="82" x="471.5" y="62.4951">has registered</text><polygon fill="#000000" points="556.5,55.6758,562.5,58.6758,556.5,61.6758,556.5,55.6758" style="stroke: #000000; stroke-width: 1.0;"/><!--MD5=[7640e466c042ba2d6f9c19c816f7f0fc]
link Platform to Organization--><path d="M209.725,139.469 C278.039,156.428 399.539,186.5913 467.826,203.544 " fill="none" id="Platform-Organization" style="stroke: #000000; stroke-width: 1.0;"/><text fill="#000000" font-family="sans-serif" font-size="13" lengthAdjust="spacingAndGlyphs" textLength="82" x="342" y="171.4951">has registered</text><polygon fill="#000000" points="427,164.6758,433,167.6758,427,170.6758,427,164.6758" style="stroke: #000000; stroke-width: 1.0;"/><!--MD5=[5245b4e133698d74a926068dd75f65a7]
link Platform to SendEmail--><path d="M209.725,127 C279.58,127 405.05,127 472.366,127 " fill="none" id="Platform-SendEmail" style="stroke: #000000; stroke-width: 1.0;"/><text fill="#000000" font-family="sans-serif" font-size="13" lengthAdjust="spacingAndGlyphs" textLength="55" x="355.5" y="123.4951">resorts to</text><polygon fill="#000000" points="413.5,116.6758,419.5,119.6758,413.5,122.6758,413.5,116.6758" style="stroke: #000000; stroke-width: 1.0;"/><!--MD5=[9baf976425d40fee507e0dac66440000]
link SendEmail to Freelancer--><path d="M565.793,117.968 C614.973,108.268 693.375,92.805 747.814,82.068 " fill="none" id="SendEmail-Freelancer" style="stroke: #000000; stroke-width: 1.0;"/><text fill="#000000" font-family="sans-serif" font-size="13" lengthAdjust="spacingAndGlyphs" textLength="103" x="601" y="85.4951">sends an email to</text><polygon fill="#000000" points="707,78.6758,713,81.6758,707,84.6758,707,78.6758" style="stroke: #000000; stroke-width: 1.0;"/><!--MD5=[2c3b6819d8c091f2222cbb06f4f0b104]
@startuml
skinparam classAttributeIconSize 0

skinparam class {
    BackgroundColor #7acff5
    BorderColor black
    ArrowColor black
}

left to right direction

skinparam stereotypeCBackgroundColor #7acff5
skinparam stereotypeABackgroundColor #7acff5
skinparam stereotypeIBackgroundColor #7acff5
skinparam Shadowing false
skinparam NoteBorderColor black

hide methods

note as N1 #0000
In this case <u>Statistics</u> and <u>NotifyFreelancer</u> were 
not considered concepts, therefore they don't
appear in the domain model.
end note

class Platform {
    -String designation
}

class Freelancer {
    -String id
    -String name
    -LevelOfExpertise level
    -String email
    -String nif
    -String iban
}

interface SendEmail {

}

class Organization {
    -String designation
    -String nif
}

Platform - - Freelancer: has registered >
Platform - - Organization: has registered >
Platform - - SendEmail: resorts to >
SendEmail - - Freelancer: sends an email to >

@enduml

PlantUML version 1.2020.10(Sun May 17 10:35:57 BST 2020)
(GPL source distribution)
Java Runtime: Java(TM) SE Runtime Environment
JVM: Java HotSpot(TM) 64-Bit Server VM
Java Version: 1.8.0_241-b07
Operating System: Windows 10
Default Encoding: Cp1252
Language: en
Country: GB
--></g></svg>