<?xml version="1.0" encoding="UTF-8" standalone="no"?><svg xmlns="http://www.w3.org/2000/svg" xmlns:xlink="http://www.w3.org/1999/xlink" contentScriptType="application/ecmascript" contentStyleType="text/css" height="794px" preserveAspectRatio="none" style="width:919px;height:794px;" version="1.1" viewBox="0 0 919 794" width="919px" zoomAndPan="magnify"><defs/><g><rect fill="#7ACFF5" height="662.9531" style="stroke: #000000; stroke-width: 1.0;" width="10" x="79" y="63.2188"/><rect fill="#7ACFF5" height="623.6016" style="stroke: #000000; stroke-width: 1.0;" width="10" x="84" y="93.5703"/><rect fill="#7ACFF5" height="30" style="stroke: #000000; stroke-width: 1.0;" width="10" x="288" y="626.8203"/><rect fill="#7ACFF5" height="30" style="stroke: #000000; stroke-width: 1.0;" width="10" x="407.5" y="274.7109"/><rect fill="#7ACFF5" height="30" style="stroke: #000000; stroke-width: 1.0;" width="10" x="538.5" y="395.4141"/><rect fill="#7ACFF5" height="30" style="stroke: #000000; stroke-width: 1.0;" width="10" x="641.5" y="559.4688"/><rect fill="#7ACFF5" height="30" style="stroke: #000000; stroke-width: 1.0;" width="10" x="741.5" y="335.0625"/><rect fill="#7ACFF5" height="30" style="stroke: #000000; stroke-width: 1.0;" width="10" x="741.5" y="455.7656"/><rect fill="#7ACFF5" height="30" style="stroke: #000000; stroke-width: 1.0;" width="10" x="849" y="687.1719"/><rect fill="#FFFFFF" height="363.4609" style="stroke: #000000; stroke-width: 2.0;" width="787" x="13" y="234.0078"/><line style="stroke: #000000; stroke-width: 1.0; stroke-dasharray: 5.0,5.0;" x1="84" x2="84" y1="53.2188" y2="735.1719"/><line style="stroke: #000000; stroke-width: 1.0; stroke-dasharray: 5.0,5.0;" x1="293" x2="293" y1="53.2188" y2="735.1719"/><line style="stroke: #000000; stroke-width: 1.0; stroke-dasharray: 5.0,5.0;" x1="412" x2="412" y1="53.2188" y2="735.1719"/><line style="stroke: #000000; stroke-width: 1.0; stroke-dasharray: 5.0,5.0;" x1="543" x2="543" y1="146.6797" y2="735.1719"/><line style="stroke: #000000; stroke-width: 1.0; stroke-dasharray: 5.0,5.0;" x1="646" x2="646" y1="206.8984" y2="735.1719"/><line style="stroke: #000000; stroke-width: 1.0; stroke-dasharray: 5.0,5.0;" x1="746" x2="746" y1="53.2188" y2="735.1719"/><line style="stroke: #000000; stroke-width: 1.0; stroke-dasharray: 5.0,5.0;" x1="854" x2="854" y1="53.2188" y2="735.1719"/><rect fill="#7ACFF5" height="49.2188" style="stroke: #000000; stroke-width: 1.5;" width="122" x="23" y="3"/><text fill="#000000" font-family="sans-serif" font-size="14" lengthAdjust="spacingAndGlyphs" textLength="103" x="32.5" y="24.5332">notifyFreelancer</text><text fill="#000000" font-family="sans-serif" font-size="14" lengthAdjust="spacingAndGlyphs" textLength="108" x="30" y="42.1426">:NotifyFreelancer</text><rect fill="#7ACFF5" height="49.2188" style="stroke: #000000; stroke-width: 1.5;" width="122" x="23" y="734.1719"/><text fill="#000000" font-family="sans-serif" font-size="14" lengthAdjust="spacingAndGlyphs" textLength="103" x="32.5" y="755.7051">notifyFreelancer</text><text fill="#000000" font-family="sans-serif" font-size="14" lengthAdjust="spacingAndGlyphs" textLength="108" x="30" y="773.3145">:NotifyFreelancer</text><rect fill="#7ACFF5" height="31.6094" style="stroke: #000000; stroke-width: 1.5;" width="70" x="258" y="20.6094"/><text fill="#000000" font-family="sans-serif" font-size="14" lengthAdjust="spacingAndGlyphs" textLength="56" x="265" y="42.1426">:Platform</text><rect fill="#7ACFF5" height="31.6094" style="stroke: #000000; stroke-width: 1.5;" width="70" x="258" y="734.1719"/><text fill="#000000" font-family="sans-serif" font-size="14" lengthAdjust="spacingAndGlyphs" textLength="56" x="265" y="755.7051">:Platform</text><rect fill="#7ACFF5" height="49.2188" style="stroke: #000000; stroke-width: 1.5;" width="149" x="338" y="3"/><text fill="#000000" font-family="sans-serif" font-size="14" lengthAdjust="spacingAndGlyphs" textLength="135" x="345" y="24.5332">freelancersThatApply</text><text fill="#000000" font-family="sans-serif" font-size="14" lengthAdjust="spacingAndGlyphs" textLength="111" x="357" y="42.1426">:List&lt;Freelancer&gt;</text><rect fill="#7ACFF5" height="49.2188" style="stroke: #000000; stroke-width: 1.5;" width="149" x="338" y="734.1719"/><text fill="#000000" font-family="sans-serif" font-size="14" lengthAdjust="spacingAndGlyphs" textLength="135" x="345" y="755.7051">freelancersThatApply</text><text fill="#000000" font-family="sans-serif" font-size="14" lengthAdjust="spacingAndGlyphs" textLength="111" x="357" y="773.3145">:List&lt;Freelancer&gt;</text><rect fill="#7ACFF5" height="49.2188" style="stroke: #000000; stroke-width: 1.5;" width="93" x="497" y="734.1719"/><text fill="#000000" font-family="sans-serif" font-size="14" lengthAdjust="spacingAndGlyphs" textLength="40" x="523.5" y="755.7051">emails</text><text fill="#000000" font-family="sans-serif" font-size="14" lengthAdjust="spacingAndGlyphs" textLength="79" x="504" y="773.3145">:List&lt;String&gt;</text><rect fill="#7ACFF5" height="49.2188" style="stroke: #000000; stroke-width: 1.5;" width="93" x="600" y="734.1719"/><text fill="#000000" font-family="sans-serif" font-size="14" lengthAdjust="spacingAndGlyphs" textLength="64" x="614.5" y="755.7051">messages</text><text fill="#000000" font-family="sans-serif" font-size="14" lengthAdjust="spacingAndGlyphs" textLength="79" x="607" y="773.3145">:List&lt;String&gt;</text><rect fill="#7ACFF5" height="49.2188" style="stroke: #000000; stroke-width: 1.5;" width="87" x="703" y="3"/><text fill="#000000" font-family="sans-serif" font-size="14" lengthAdjust="spacingAndGlyphs" textLength="28" x="732.5" y="24.5332">freel</text><text fill="#000000" font-family="sans-serif" font-size="14" lengthAdjust="spacingAndGlyphs" textLength="73" x="710" y="42.1426">:Freelancer</text><rect fill="#7ACFF5" height="49.2188" style="stroke: #000000; stroke-width: 1.5;" width="87" x="703" y="734.1719"/><text fill="#000000" font-family="sans-serif" font-size="14" lengthAdjust="spacingAndGlyphs" textLength="28" x="732.5" y="755.7051">freel</text><text fill="#000000" font-family="sans-serif" font-size="14" lengthAdjust="spacingAndGlyphs" textLength="73" x="710" y="773.3145">:Freelancer</text><rect fill="#7ACFF5" height="49.2188" style="stroke: #000000; stroke-width: 1.5;" width="108" x="800" y="3"/><text fill="#000000" font-family="sans-serif" font-size="14" lengthAdjust="spacingAndGlyphs" textLength="87" x="810.5" y="24.5332">&lt;&lt;Interface&gt;&gt;</text><text fill="#000000" font-family="sans-serif" font-size="14" lengthAdjust="spacingAndGlyphs" textLength="94" x="807" y="42.1426">api: SendEmail</text><rect fill="#7ACFF5" height="49.2188" style="stroke: #000000; stroke-width: 1.5;" width="108" x="800" y="734.1719"/><text fill="#000000" font-family="sans-serif" font-size="14" lengthAdjust="spacingAndGlyphs" textLength="87" x="810.5" y="755.7051">&lt;&lt;Interface&gt;&gt;</text><text fill="#000000" font-family="sans-serif" font-size="14" lengthAdjust="spacingAndGlyphs" textLength="94" x="807" y="773.3145">api: SendEmail</text><rect fill="#7ACFF5" height="662.9531" style="stroke: #000000; stroke-width: 1.0;" width="10" x="79" y="63.2188"/><rect fill="#7ACFF5" height="623.6016" style="stroke: #000000; stroke-width: 1.0;" width="10" x="84" y="93.5703"/><rect fill="#7ACFF5" height="30" style="stroke: #000000; stroke-width: 1.0;" width="10" x="288" y="626.8203"/><rect fill="#7ACFF5" height="30" style="stroke: #000000; stroke-width: 1.0;" width="10" x="407.5" y="274.7109"/><rect fill="#7ACFF5" height="30" style="stroke: #000000; stroke-width: 1.0;" width="10" x="538.5" y="395.4141"/><rect fill="#7ACFF5" height="30" style="stroke: #000000; stroke-width: 1.0;" width="10" x="641.5" y="559.4688"/><rect fill="#7ACFF5" height="30" style="stroke: #000000; stroke-width: 1.0;" width="10" x="741.5" y="335.0625"/><rect fill="#7ACFF5" height="30" style="stroke: #000000; stroke-width: 1.0;" width="10" x="741.5" y="455.7656"/><rect fill="#7ACFF5" height="30" style="stroke: #000000; stroke-width: 1.0;" width="10" x="849" y="687.1719"/><line style="stroke: #000000; stroke-width: 1.0;" x1="89" x2="136" y1="80.5703" y2="80.5703"/><line style="stroke: #000000; stroke-width: 1.0;" x1="136" x2="136" y1="80.5703" y2="93.5703"/><line style="stroke: #000000; stroke-width: 1.0;" x1="95" x2="136" y1="93.5703" y2="93.5703"/><polygon fill="#000000" points="105,89.5703,95,93.5703,105,97.5703,101,93.5703" style="stroke: #000000; stroke-width: 1.0;"/><text fill="#000000" font-family="sans-serif" font-size="13" font-weight="bold" lengthAdjust="spacingAndGlyphs" textLength="7" x="101" y="75.7139">1</text><text fill="#000000" font-family="sans-serif" font-size="13" lengthAdjust="spacingAndGlyphs" textLength="100" x="112" y="75.7139">notifyFreelancer()</text><polygon fill="#000000" points="485,124.9219,495,128.9219,485,132.9219,489,128.9219" style="stroke: #000000; stroke-width: 1.0;"/><line style="stroke: #000000; stroke-width: 1.0;" x1="94" x2="491" y1="128.9219" y2="128.9219"/><text fill="#000000" font-family="sans-serif" font-size="13" font-weight="bold" lengthAdjust="spacingAndGlyphs" textLength="7" x="101" y="124.0654">2</text><text fill="#000000" font-family="sans-serif" font-size="13" lengthAdjust="spacingAndGlyphs" textLength="44" x="112" y="124.0654">create()</text><rect fill="#7ACFF5" height="49.2188" style="stroke: #000000; stroke-width: 1.5;" width="93" x="497" y="106.5703"/><text fill="#000000" font-family="sans-serif" font-size="14" lengthAdjust="spacingAndGlyphs" textLength="40" x="523.5" y="128.1035">emails</text><text fill="#000000" font-family="sans-serif" font-size="14" lengthAdjust="spacingAndGlyphs" textLength="79" x="504" y="145.7129">:List&lt;String&gt;</text><polygon fill="#000000" points="588,185.1406,598,189.1406,588,193.1406,592,189.1406" style="stroke: #000000; stroke-width: 1.0;"/><line style="stroke: #000000; stroke-width: 1.0;" x1="94" x2="594" y1="189.1406" y2="189.1406"/><text fill="#000000" font-family="sans-serif" font-size="13" font-weight="bold" lengthAdjust="spacingAndGlyphs" textLength="7" x="101" y="184.2842">3</text><text fill="#000000" font-family="sans-serif" font-size="13" lengthAdjust="spacingAndGlyphs" textLength="44" x="112" y="184.2842">create()</text><rect fill="#7ACFF5" height="49.2188" style="stroke: #000000; stroke-width: 1.5;" width="93" x="600" y="166.7891"/><text fill="#000000" font-family="sans-serif" font-size="14" lengthAdjust="spacingAndGlyphs" textLength="64" x="614.5" y="188.3223">messages</text><text fill="#000000" font-family="sans-serif" font-size="14" lengthAdjust="spacingAndGlyphs" textLength="79" x="607" y="205.9316">:List&lt;String&gt;</text><path d="M13,234.0078 L86,234.0078 L86,242.0078 L76,252.0078 L13,252.0078 L13,234.0078 " fill="#EEEEEE" style="stroke: #000000; stroke-width: 1.0;"/><rect fill="none" height="363.4609" style="stroke: #000000; stroke-width: 2.0;" width="787" x="13" y="234.0078"/><text fill="#000000" font-family="sans-serif" font-size="13" font-weight="bold" lengthAdjust="spacingAndGlyphs" textLength="28" x="28" y="248.5029">loop</text><text fill="#000000" font-family="sans-serif" font-size="11" font-weight="bold" lengthAdjust="spacingAndGlyphs" textLength="180" x="101" y="247.4268">[for each freelancer that applies]</text><polygon fill="#000000" points="395.5,270.7109,405.5,274.7109,395.5,278.7109,399.5,274.7109" style="stroke: #000000; stroke-width: 1.0;"/><line style="stroke: #000000; stroke-width: 1.0;" x1="94" x2="401.5" y1="274.7109" y2="274.7109"/><text fill="#000000" font-family="sans-serif" font-size="13" font-weight="bold" lengthAdjust="spacingAndGlyphs" textLength="7" x="101" y="269.8545">4</text><text fill="#000000" font-family="sans-serif" font-size="13" lengthAdjust="spacingAndGlyphs" textLength="69" x="112" y="269.8545">freel = get(i)</text><polygon fill="#000000" points="729.5,331.0625,739.5,335.0625,729.5,339.0625,733.5,335.0625" style="stroke: #000000; stroke-width: 1.0;"/><line style="stroke: #000000; stroke-width: 1.0;" x1="94" x2="735.5" y1="335.0625" y2="335.0625"/><text fill="#000000" font-family="sans-serif" font-size="13" font-weight="bold" lengthAdjust="spacingAndGlyphs" textLength="7" x="101" y="330.2061">5</text><text fill="#000000" font-family="sans-serif" font-size="13" lengthAdjust="spacingAndGlyphs" textLength="106" x="112" y="330.2061">email = getEmail()</text><polygon fill="#000000" points="526.5,391.4141,536.5,395.4141,526.5,399.4141,530.5,395.4141" style="stroke: #000000; stroke-width: 1.0;"/><line style="stroke: #000000; stroke-width: 1.0;" x1="94" x2="532.5" y1="395.4141" y2="395.4141"/><text fill="#000000" font-family="sans-serif" font-size="13" font-weight="bold" lengthAdjust="spacingAndGlyphs" textLength="7" x="101" y="390.5576">6</text><text fill="#000000" font-family="sans-serif" font-size="13" lengthAdjust="spacingAndGlyphs" textLength="60" x="112" y="390.5576">add(email)</text><polygon fill="#000000" points="729.5,451.7656,739.5,455.7656,729.5,459.7656,733.5,455.7656" style="stroke: #000000; stroke-width: 1.0;"/><line style="stroke: #000000; stroke-width: 1.0;" x1="94" x2="735.5" y1="455.7656" y2="455.7656"/><text fill="#000000" font-family="sans-serif" font-size="13" font-weight="bold" lengthAdjust="spacingAndGlyphs" textLength="7" x="101" y="450.9092">7</text><text fill="#000000" font-family="sans-serif" font-size="13" lengthAdjust="spacingAndGlyphs" textLength="108" x="112" y="450.9092">name = getName()</text><line style="stroke: #000000; stroke-width: 1.0;" x1="94" x2="136" y1="516.1172" y2="516.1172"/><line style="stroke: #000000; stroke-width: 1.0;" x1="136" x2="136" y1="516.1172" y2="529.1172"/><line style="stroke: #000000; stroke-width: 1.0;" x1="95" x2="136" y1="529.1172" y2="529.1172"/><polygon fill="#000000" points="105,525.1172,95,529.1172,105,533.1172,101,529.1172" style="stroke: #000000; stroke-width: 1.0;"/><text fill="#000000" font-family="sans-serif" font-size="13" font-weight="bold" lengthAdjust="spacingAndGlyphs" textLength="7" x="101" y="511.2607">8</text><text fill="#000000" font-family="sans-serif" font-size="13" lengthAdjust="spacingAndGlyphs" textLength="169" x="112" y="511.2607">message = writeEmail(name)</text><polygon fill="#000000" points="629.5,555.4688,639.5,559.4688,629.5,563.4688,633.5,559.4688" style="stroke: #000000; stroke-width: 1.0;"/><line style="stroke: #000000; stroke-width: 1.0;" x1="94" x2="635.5" y1="559.4688" y2="559.4688"/><text fill="#000000" font-family="sans-serif" font-size="13" font-weight="bold" lengthAdjust="spacingAndGlyphs" textLength="7" x="101" y="554.6123">9</text><text fill="#000000" font-family="sans-serif" font-size="13" lengthAdjust="spacingAndGlyphs" textLength="82" x="112" y="554.6123">add(message)</text><polygon fill="#000000" points="276,622.8203,286,626.8203,276,630.8203,280,626.8203" style="stroke: #000000; stroke-width: 1.0;"/><line style="stroke: #000000; stroke-width: 1.0;" x1="94" x2="282" y1="626.8203" y2="626.8203"/><text fill="#000000" font-family="sans-serif" font-size="13" font-weight="bold" lengthAdjust="spacingAndGlyphs" textLength="14" x="101" y="621.9639">10</text><text fill="#000000" font-family="sans-serif" font-size="13" lengthAdjust="spacingAndGlyphs" textLength="111" x="119" y="621.9639">api = getEmailApi()</text><polygon fill="#000000" points="837,683.1719,847,687.1719,837,691.1719,841,687.1719" style="stroke: #000000; stroke-width: 1.0;"/><line style="stroke: #000000; stroke-width: 1.0;" x1="94" x2="843" y1="687.1719" y2="687.1719"/><text fill="#000000" font-family="sans-serif" font-size="13" font-weight="bold" lengthAdjust="spacingAndGlyphs" textLength="14" x="101" y="682.3154">11</text><text fill="#000000" font-family="sans-serif" font-size="13" lengthAdjust="spacingAndGlyphs" textLength="252" x="119" y="682.3154">sendEmail = sendEmail(emails, messages)</text><!--MD5=[2433d82c67aa9130828d812e00e91cab]
@startuml
participant "notifyFreelancer\n:NotifyFreelancer" as TASK
participant ":Platform" as PLAT
participant "freelancersThatApply\n:List<Freelancer>" as LSTFREEL
participant "emails\n:List<String>" as LSTEMAIL
participant "messages\n:List<String>" as LSTMESS
participant "freel\n:Freelancer" as FREEL
participant "<<Interface>>\napi: SendEmail" as API

autonumber

skinparam Shadowing false

skinparam sequence {
    ArrowColor black
    
    LifeLineBackgroundColor #7acff5
    LifeLineBorderColor black
    
    ParticipantBorderColor black
    ParticipantBackgroundColor #7acff5
    
    ActorBackgroundColor #7acff5
    ActorBorderColor black

}

activate TASK
TASK -> TASK: notifyFreelancer()
activate TASK
TASK -> LSTEMAIL*: create()
TASK -> LSTMESS*: create()
loop for each freelancer that applies
TASK -> LSTFREEL: freel = get(i)
activate LSTFREEL
deactivate LSTFREEL
TASK -> FREEL: email = getEmail()
activate FREEL
deactivate FREEL
TASK -> LSTEMAIL: add(email)
activate LSTEMAIL
deactivate LSTEMAIL
TASK -> FREEL: name = getName()
activate FREEL
deactivate FREEL
TASK -> TASK: message = writeEmail(name)
TASK -> LSTMESS: add(message)
activate LSTMESS
deactivate LSTMESS
end loop
TASK -> PLAT: api = getEmailApi()
activate PLAT
deactivate PLAT
TASK -> API: sendEmail = sendEmail(emails, messages)
activate API
deactivate API
deactivate TASK
@enduml

PlantUML version 1.2020.10(Sun May 17 10:35:57 BST 2020)
(GPL source distribution)
Java Runtime: Java(TM) SE Runtime Environment
JVM: Java HotSpot(TM) 64-Bit Server VM
Java Version: 1.8.0_241-b07
Operating System: Windows 10
Default Encoding: Cp1252
Language: en
Country: GB
--></g></svg>