<?xml version="1.0" encoding="UTF-8" standalone="no"?><svg xmlns="http://www.w3.org/2000/svg" xmlns:xlink="http://www.w3.org/1999/xlink" contentScriptType="application/ecmascript" contentStyleType="text/css" height="558px" preserveAspectRatio="none" style="width:590px;height:558px;" version="1.1" viewBox="0 0 590 558" width="590px" zoomAndPan="magnify"><defs><filter height="300%" id="f1rnvh7p8x51hn" width="300%" x="-1" y="-1"><feGaussianBlur result="blurOut" stdDeviation="2.0"/><feColorMatrix in="blurOut" result="blurOut2" type="matrix" values="0 0 0 0 0 0 0 0 0 0 0 0 0 0 0 0 0 0 .4 0"/><feOffset dx="4.0" dy="4.0" in="blurOut2" result="blurOut3"/><feBlend in="SourceGraphic" in2="blurOut3" mode="normal"/></filter></defs><g><rect fill="#FFFFFF" filter="url(#f1rnvh7p8x51hn)" height="356.7266" style="stroke: #A80036; stroke-width: 1.0;" width="10" x="107" y="96.2969"/><rect fill="#FFFFFF" filter="url(#f1rnvh7p8x51hn)" height="29.1328" style="stroke: #A80036; stroke-width: 1.0;" width="10" x="538" y="117.4297"/><rect fill="#FFFFFF" filter="url(#f1rnvh7p8x51hn)" height="29.1328" style="stroke: #A80036; stroke-width: 1.0;" width="10" x="538" y="175.6953"/><rect fill="#FFFFFF" filter="url(#f1rnvh7p8x51hn)" height="44.2656" style="stroke: #A80036; stroke-width: 1.0;" width="10" x="538" y="233.9609"/><rect fill="#FFFFFF" filter="url(#f1rnvh7p8x51hn)" height="29.1328" style="stroke: #A80036; stroke-width: 1.0;" width="10" x="538" y="307.3594"/><rect fill="#FFFFFF" filter="url(#f1rnvh7p8x51hn)" height="29.1328" style="stroke: #A80036; stroke-width: 1.0;" width="10" x="538" y="365.625"/><rect fill="#FFFFFF" filter="url(#f1rnvh7p8x51hn)" height="29.1328" style="stroke: #A80036; stroke-width: 1.0;" width="10" x="538" y="423.8906"/><line style="stroke: #A80036; stroke-width: 1.0; stroke-dasharray: 5.0,5.0;" x1="112" x2="112" y1="86.2969" y2="471.0234"/><line style="stroke: #A80036; stroke-width: 1.0; stroke-dasharray: 5.0,5.0;" x1="542.5" x2="542.5" y1="86.2969" y2="471.0234"/><text fill="#000000" font-family="sans-serif" font-size="14" lengthAdjust="spacingAndGlyphs" textLength="202" x="8" y="82.9951">Colaborador de Organização</text><ellipse cx="112" cy="13" fill="#FEFECE" filter="url(#f1rnvh7p8x51hn)" rx="8" ry="8" style="stroke: #A80036; stroke-width: 2.0;"/><path d="M112,21 L112,48 M99,29 L125,29 M112,48 L99,63 M112,48 L125,63 " fill="none" filter="url(#f1rnvh7p8x51hn)" style="stroke: #A80036; stroke-width: 2.0;"/><text fill="#000000" font-family="sans-serif" font-size="14" lengthAdjust="spacingAndGlyphs" textLength="202" x="8" y="483.0186">Colaborador de Organização</text><ellipse cx="112" cy="496.3203" fill="#FEFECE" filter="url(#f1rnvh7p8x51hn)" rx="8" ry="8" style="stroke: #A80036; stroke-width: 2.0;"/><path d="M112,504.3203 L112,531.3203 M99,512.3203 L125,512.3203 M112,531.3203 L99,546.3203 M112,531.3203 L125,546.3203 " fill="none" filter="url(#f1rnvh7p8x51hn)" style="stroke: #A80036; stroke-width: 2.0;"/><rect fill="#FEFECE" filter="url(#f1rnvh7p8x51hn)" height="30.2969" style="stroke: #A80036; stroke-width: 1.5;" width="77" x="502.5" y="51"/><text fill="#000000" font-family="sans-serif" font-size="14" lengthAdjust="spacingAndGlyphs" textLength="63" x="509.5" y="70.9951">:Sistema</text><rect fill="#FEFECE" filter="url(#f1rnvh7p8x51hn)" height="30.2969" style="stroke: #A80036; stroke-width: 1.5;" width="77" x="502.5" y="470.0234"/><text fill="#000000" font-family="sans-serif" font-size="14" lengthAdjust="spacingAndGlyphs" textLength="63" x="509.5" y="490.0186">:Sistema</text><rect fill="#FFFFFF" filter="url(#f1rnvh7p8x51hn)" height="356.7266" style="stroke: #A80036; stroke-width: 1.0;" width="10" x="107" y="96.2969"/><rect fill="#FFFFFF" filter="url(#f1rnvh7p8x51hn)" height="29.1328" style="stroke: #A80036; stroke-width: 1.0;" width="10" x="538" y="117.4297"/><rect fill="#FFFFFF" filter="url(#f1rnvh7p8x51hn)" height="29.1328" style="stroke: #A80036; stroke-width: 1.0;" width="10" x="538" y="175.6953"/><rect fill="#FFFFFF" filter="url(#f1rnvh7p8x51hn)" height="44.2656" style="stroke: #A80036; stroke-width: 1.0;" width="10" x="538" y="233.9609"/><rect fill="#FFFFFF" filter="url(#f1rnvh7p8x51hn)" height="29.1328" style="stroke: #A80036; stroke-width: 1.0;" width="10" x="538" y="307.3594"/><rect fill="#FFFFFF" filter="url(#f1rnvh7p8x51hn)" height="29.1328" style="stroke: #A80036; stroke-width: 1.0;" width="10" x="538" y="365.625"/><rect fill="#FFFFFF" filter="url(#f1rnvh7p8x51hn)" height="29.1328" style="stroke: #A80036; stroke-width: 1.0;" width="10" x="538" y="423.8906"/><polygon fill="#A80036" points="526,113.4297,536,117.4297,526,121.4297,530,117.4297" style="stroke: #A80036; stroke-width: 1.0;"/><line style="stroke: #A80036; stroke-width: 1.0;" x1="117" x2="532" y1="117.4297" y2="117.4297"/><text fill="#000000" font-family="sans-serif" font-size="13" font-weight="bold" lengthAdjust="spacingAndGlyphs" textLength="9" x="124" y="112.3638">1</text><text fill="#000000" font-family="sans-serif" font-size="13" lengthAdjust="spacingAndGlyphs" textLength="301" x="137" y="112.3638">inicia criação de uma transação de pagamento</text><polygon fill="#A80036" points="128,142.5625,118,146.5625,128,150.5625,124,146.5625" style="stroke: #A80036; stroke-width: 1.0;"/><line style="stroke: #A80036; stroke-width: 1.0; stroke-dasharray: 2.0,2.0;" x1="122" x2="542" y1="146.5625" y2="146.5625"/><text fill="#000000" font-family="sans-serif" font-size="13" font-weight="bold" lengthAdjust="spacingAndGlyphs" textLength="9" x="134" y="141.4966">2</text><text fill="#000000" font-family="sans-serif" font-size="13" lengthAdjust="spacingAndGlyphs" textLength="372" x="147" y="141.4966">solicita escolha da tarefa duma lista de tarefas concluidas</text><polygon fill="#A80036" points="526,171.6953,536,175.6953,526,179.6953,530,175.6953" style="stroke: #A80036; stroke-width: 1.0;"/><line style="stroke: #A80036; stroke-width: 1.0;" x1="117" x2="532" y1="175.6953" y2="175.6953"/><text fill="#000000" font-family="sans-serif" font-size="13" font-weight="bold" lengthAdjust="spacingAndGlyphs" textLength="8" x="124" y="170.6294">3</text><text fill="#000000" font-family="sans-serif" font-size="13" lengthAdjust="spacingAndGlyphs" textLength="186" x="136" y="170.6294">identifica a tarefa pretendida</text><polygon fill="#A80036" points="128,200.8281,118,204.8281,128,208.8281,124,204.8281" style="stroke: #A80036; stroke-width: 1.0;"/><line style="stroke: #A80036; stroke-width: 1.0; stroke-dasharray: 2.0,2.0;" x1="122" x2="542" y1="204.8281" y2="204.8281"/><text fill="#000000" font-family="sans-serif" font-size="13" font-weight="bold" lengthAdjust="spacingAndGlyphs" textLength="9" x="134" y="199.7622">4</text><text fill="#000000" font-family="sans-serif" font-size="13" lengthAdjust="spacingAndGlyphs" textLength="384" x="147" y="199.7622">apresenta o Freelancer que a executou e pede confirmação</text><polygon fill="#A80036" points="526,229.9609,536,233.9609,526,237.9609,530,233.9609" style="stroke: #A80036; stroke-width: 1.0;"/><line style="stroke: #A80036; stroke-width: 1.0;" x1="117" x2="532" y1="233.9609" y2="233.9609"/><text fill="#000000" font-family="sans-serif" font-size="13" font-weight="bold" lengthAdjust="spacingAndGlyphs" textLength="9" x="124" y="228.895">5</text><text fill="#000000" font-family="sans-serif" font-size="13" lengthAdjust="spacingAndGlyphs" textLength="57" x="137" y="228.895">confirma</text><polygon fill="#A80036" points="128,274.2266,118,278.2266,128,282.2266,124,278.2266" style="stroke: #A80036; stroke-width: 1.0;"/><line style="stroke: #A80036; stroke-width: 1.0; stroke-dasharray: 2.0,2.0;" x1="122" x2="542" y1="278.2266" y2="278.2266"/><text fill="#000000" font-family="sans-serif" font-size="13" font-weight="bold" lengthAdjust="spacingAndGlyphs" textLength="9" x="134" y="265.5942">6</text><text fill="#000000" font-family="sans-serif" font-size="13" lengthAdjust="spacingAndGlyphs" textLength="252" x="147" y="258.0278">solicita detalhes da execução da tarefa</text><text fill="#000000" font-family="sans-serif" font-size="13" lengthAdjust="spacingAndGlyphs" textLength="346" x="147" y="273.1606">(data conclusão, delay, descrição breve da qualidade)</text><polygon fill="#A80036" points="526,303.3594,536,307.3594,526,311.3594,530,307.3594" style="stroke: #A80036; stroke-width: 1.0;"/><line style="stroke: #A80036; stroke-width: 1.0;" x1="117" x2="532" y1="307.3594" y2="307.3594"/><text fill="#000000" font-family="sans-serif" font-size="13" font-weight="bold" lengthAdjust="spacingAndGlyphs" textLength="9" x="124" y="302.2935">7</text><text fill="#000000" font-family="sans-serif" font-size="13" lengthAdjust="spacingAndGlyphs" textLength="185" x="137" y="302.2935">introduz os dados solicitados</text><polygon fill="#A80036" points="128,332.4922,118,336.4922,128,340.4922,124,336.4922" style="stroke: #A80036; stroke-width: 1.0;"/><line style="stroke: #A80036; stroke-width: 1.0; stroke-dasharray: 2.0,2.0;" x1="122" x2="542" y1="336.4922" y2="336.4922"/><text fill="#000000" font-family="sans-serif" font-size="13" font-weight="bold" lengthAdjust="spacingAndGlyphs" textLength="9" x="134" y="331.4263">8</text><text fill="#000000" font-family="sans-serif" font-size="13" lengthAdjust="spacingAndGlyphs" textLength="244" x="147" y="331.4263">valida os dados e solicita confirmação</text><polygon fill="#A80036" points="526,361.625,536,365.625,526,369.625,530,365.625" style="stroke: #A80036; stroke-width: 1.0;"/><line style="stroke: #A80036; stroke-width: 1.0;" x1="117" x2="532" y1="365.625" y2="365.625"/><text fill="#000000" font-family="sans-serif" font-size="13" font-weight="bold" lengthAdjust="spacingAndGlyphs" textLength="9" x="124" y="360.5591">9</text><text fill="#000000" font-family="sans-serif" font-size="13" lengthAdjust="spacingAndGlyphs" textLength="119" x="137" y="360.5591">confirma os dados</text><polygon fill="#A80036" points="128,390.7578,118,394.7578,128,398.7578,124,394.7578" style="stroke: #A80036; stroke-width: 1.0;"/><line style="stroke: #A80036; stroke-width: 1.0; stroke-dasharray: 2.0,2.0;" x1="122" x2="542" y1="394.7578" y2="394.7578"/><text fill="#000000" font-family="sans-serif" font-size="13" font-weight="bold" lengthAdjust="spacingAndGlyphs" textLength="19" x="134" y="389.6919">10</text><text fill="#000000" font-family="sans-serif" font-size="13" lengthAdjust="spacingAndGlyphs" textLength="372" x="157" y="389.6919">apresenta o valor a pagar pela tarefa e pede confirmação</text><polygon fill="#A80036" points="526,419.8906,536,423.8906,526,427.8906,530,423.8906" style="stroke: #A80036; stroke-width: 1.0;"/><line style="stroke: #A80036; stroke-width: 1.0;" x1="117" x2="532" y1="423.8906" y2="423.8906"/><text fill="#000000" font-family="sans-serif" font-size="13" font-weight="bold" lengthAdjust="spacingAndGlyphs" textLength="18" x="124" y="418.8247">11</text><text fill="#000000" font-family="sans-serif" font-size="13" lengthAdjust="spacingAndGlyphs" textLength="57" x="146" y="418.8247">confirma</text><polygon fill="#A80036" points="123,449.0234,113,453.0234,123,457.0234,119,453.0234" style="stroke: #A80036; stroke-width: 1.0;"/><line style="stroke: #A80036; stroke-width: 1.0; stroke-dasharray: 2.0,2.0;" x1="117" x2="542" y1="453.0234" y2="453.0234"/><text fill="#000000" font-family="sans-serif" font-size="13" font-weight="bold" lengthAdjust="spacingAndGlyphs" textLength="18" x="129" y="447.9575">12</text><text fill="#000000" font-family="sans-serif" font-size="13" lengthAdjust="spacingAndGlyphs" textLength="210" x="151" y="447.9575">informa do sucesso da operação</text><!--MD5=[51c1158164c7eae0ad374551d42743d0]
@startuml
autonumber
actor "Colaborador de Organização" as COL

activate COL

COL -> ":Sistema" : inicia criação de uma transação de pagamento
activate ":Sistema"
":Sistema" - -> COL : solicita escolha da tarefa duma lista de tarefas concluidas
deactivate ":Sistema"

COL -> ":Sistema" : identifica a tarefa pretendida
activate ":Sistema"
":Sistema" - -> COL : apresenta o Freelancer que a executou e pede confirmação
deactivate ":Sistema"

COL -> ":Sistema" : confirma 
activate ":Sistema"
":Sistema" - -> COL : solicita detalhes da execução da tarefa \n(data conclusão, delay, descrição breve da qualidade)
deactivate ":Sistema"

COL -> ":Sistema" : introduz os dados solicitados
activate ":Sistema"
":Sistema" - -> COL : valida os dados e solicita confirmação
deactivate ":Sistema"

COL -> ":Sistema" : confirma os dados
activate ":Sistema"
":Sistema" - -> COL : apresenta o valor a pagar pela tarefa e pede confirmação
deactivate ":Sistema"

COL -> ":Sistema" : confirma
activate ":Sistema"
":Sistema" - -> COL : informa do sucesso da operação
deactivate ":Sistema"

deactivate COL
@enduml

PlantUML version 1.2020.11(Sat May 30 10:13:43 UTC 2020)
(GPL source distribution)
Java Runtime: Java(TM) SE Runtime Environment
JVM: Java HotSpot(TM) 64-Bit Server VM
Default Encoding: UTF-8
Language: en
Country: US
--></g></svg>