<?xml version="1.0" encoding="UTF-8" standalone="no"?><svg xmlns="http://www.w3.org/2000/svg" xmlns:xlink="http://www.w3.org/1999/xlink" contentScriptType="application/ecmascript" contentStyleType="text/css" height="275px" preserveAspectRatio="none" style="width:1055px;height:275px;" version="1.1" viewBox="0 0 1055 275" width="1055px" zoomAndPan="magnify"><defs><filter height="300%" id="fwtuatsh04mob" width="300%" x="-1" y="-1"><feGaussianBlur result="blurOut" stdDeviation="2.0"/><feColorMatrix in="blurOut" result="blurOut2" type="matrix" values="0 0 0 0 0 0 0 0 0 0 0 0 0 0 0 0 0 0 .4 0"/><feOffset dx="4.0" dy="4.0" in="blurOut2" result="blurOut3"/><feBlend in="SourceGraphic" in2="blurOut3" mode="normal"/></filter></defs><g><!--MD5=[ecaed46f78f8cfe1e9ce18477649be18]
class Plataforma--><rect fill="#FEFECE" filter="url(#fwtuatsh04mob)" height="52.8047" id="Plataforma" style="stroke: #A80036; stroke-width: 1.5;" width="118" x="6" y="34"/><ellipse cx="31.8" cy="50" fill="#ADD1B2" rx="11" ry="11" style="stroke: #A80036; stroke-width: 1.0;"/><path d="M34.1438,45.6719 C33.2063,45.2344 32.6125,45.0938 31.7375,45.0938 C29.1125,45.0938 27.1125,47.1719 27.1125,49.8906 L27.1125,51.0156 C27.1125,53.5938 29.2219,55.4844 32.1125,55.4844 C33.3313,55.4844 34.4875,55.1875 35.2375,54.6406 C35.8156,54.2344 36.1438,53.7813 36.1438,53.3906 C36.1438,52.9375 35.7531,52.5469 35.2844,52.5469 C35.0656,52.5469 34.8625,52.625 34.675,52.8125 C34.2219,53.2969 34.2219,53.2969 34.0344,53.3906 C33.6125,53.6563 32.925,53.7813 32.1594,53.7813 C30.1125,53.7813 28.8156,52.6875 28.8156,50.9844 L28.8156,49.8906 C28.8156,48.1094 30.0656,46.7969 31.8,46.7969 C32.3781,46.7969 32.9875,46.9531 33.4563,47.2031 C33.9406,47.4844 34.1125,47.7031 34.2063,48.1094 C34.2688,48.5156 34.3,48.6406 34.4406,48.7656 C34.5813,48.9063 34.8156,49.0156 35.0344,49.0156 C35.3,49.0156 35.5656,48.875 35.7375,48.6563 C35.8469,48.5 35.8781,48.3125 35.8781,47.8906 L35.8781,46.4688 C35.8781,46.0313 35.8625,45.9063 35.7688,45.75 C35.6125,45.4844 35.3313,45.3438 35.0344,45.3438 C34.7375,45.3438 34.5344,45.4375 34.3156,45.75 L34.1438,45.6719 Z "/><text fill="#000000" font-family="sans-serif" font-size="12" lengthAdjust="spacingAndGlyphs" textLength="62" x="48.2" y="54.1543">Plataforma</text><line style="stroke: #A80036; stroke-width: 1.5;" x1="7" x2="123" y1="66" y2="66"/><text fill="#000000" font-family="sans-serif" font-size="11" lengthAdjust="spacingAndGlyphs" textLength="106" x="12" y="80.2104">-String designacao</text><!--MD5=[807977ceb130c090ed5febfb6de2bdea]
class Organizacao--><rect fill="#FEFECE" filter="url(#fwtuatsh04mob)" height="104.0234" id="Organizacao" style="stroke: #A80036; stroke-width: 1.5;" width="108" x="306.5" y="8.5"/><ellipse cx="321.5" cy="24.5" fill="#ADD1B2" rx="11" ry="11" style="stroke: #A80036; stroke-width: 1.0;"/><path d="M323.8438,20.1719 C322.9063,19.7344 322.3125,19.5938 321.4375,19.5938 C318.8125,19.5938 316.8125,21.6719 316.8125,24.3906 L316.8125,25.5156 C316.8125,28.0938 318.9219,29.9844 321.8125,29.9844 C323.0313,29.9844 324.1875,29.6875 324.9375,29.1406 C325.5156,28.7344 325.8438,28.2813 325.8438,27.8906 C325.8438,27.4375 325.4531,27.0469 324.9844,27.0469 C324.7656,27.0469 324.5625,27.125 324.375,27.3125 C323.9219,27.7969 323.9219,27.7969 323.7344,27.8906 C323.3125,28.1563 322.625,28.2813 321.8594,28.2813 C319.8125,28.2813 318.5156,27.1875 318.5156,25.4844 L318.5156,24.3906 C318.5156,22.6094 319.7656,21.2969 321.5,21.2969 C322.0781,21.2969 322.6875,21.4531 323.1563,21.7031 C323.6406,21.9844 323.8125,22.2031 323.9063,22.6094 C323.9688,23.0156 324,23.1406 324.1406,23.2656 C324.2813,23.4063 324.5156,23.5156 324.7344,23.5156 C325,23.5156 325.2656,23.375 325.4375,23.1563 C325.5469,23 325.5781,22.8125 325.5781,22.3906 L325.5781,20.9688 C325.5781,20.5313 325.5625,20.4063 325.4688,20.25 C325.3125,19.9844 325.0313,19.8438 324.7344,19.8438 C324.4375,19.8438 324.2344,19.9375 324.0156,20.25 L323.8438,20.1719 Z "/><text fill="#000000" font-family="sans-serif" font-size="12" lengthAdjust="spacingAndGlyphs" textLength="76" x="335.5" y="28.6543">Organizacao</text><line style="stroke: #A80036; stroke-width: 1.5;" x1="307.5" x2="413.5" y1="40.5" y2="40.5"/><text fill="#000000" font-family="sans-serif" font-size="11" lengthAdjust="spacingAndGlyphs" textLength="74" x="312.5" y="54.7104">-String nome</text><text fill="#000000" font-family="sans-serif" font-size="11" lengthAdjust="spacingAndGlyphs" textLength="58" x="312.5" y="67.5151">-String NIF</text><text fill="#000000" font-family="sans-serif" font-size="11" lengthAdjust="spacingAndGlyphs" textLength="86" x="312.5" y="80.3198">-String website</text><text fill="#000000" font-family="sans-serif" font-size="11" lengthAdjust="spacingAndGlyphs" textLength="90" x="312.5" y="93.1245">-String telefone</text><text fill="#000000" font-family="sans-serif" font-size="11" lengthAdjust="spacingAndGlyphs" textLength="73" x="312.5" y="105.9292">-String email</text><!--MD5=[ac8682ea5466d223e49472789fb200d2]
class Colaborador--><rect fill="#FEFECE" filter="url(#fwtuatsh04mob)" height="65.6094" id="Colaborador" style="stroke: #A80036; stroke-width: 1.5;" width="107" x="619.5" y="46.5"/><ellipse cx="634.5" cy="62.5" fill="#ADD1B2" rx="11" ry="11" style="stroke: #A80036; stroke-width: 1.0;"/><path d="M636.8438,58.1719 C635.9063,57.7344 635.3125,57.5938 634.4375,57.5938 C631.8125,57.5938 629.8125,59.6719 629.8125,62.3906 L629.8125,63.5156 C629.8125,66.0938 631.9219,67.9844 634.8125,67.9844 C636.0313,67.9844 637.1875,67.6875 637.9375,67.1406 C638.5156,66.7344 638.8438,66.2813 638.8438,65.8906 C638.8438,65.4375 638.4531,65.0469 637.9844,65.0469 C637.7656,65.0469 637.5625,65.125 637.375,65.3125 C636.9219,65.7969 636.9219,65.7969 636.7344,65.8906 C636.3125,66.1563 635.625,66.2813 634.8594,66.2813 C632.8125,66.2813 631.5156,65.1875 631.5156,63.4844 L631.5156,62.3906 C631.5156,60.6094 632.7656,59.2969 634.5,59.2969 C635.0781,59.2969 635.6875,59.4531 636.1563,59.7031 C636.6406,59.9844 636.8125,60.2031 636.9063,60.6094 C636.9688,61.0156 637,61.1406 637.1406,61.2656 C637.2813,61.4063 637.5156,61.5156 637.7344,61.5156 C638,61.5156 638.2656,61.375 638.4375,61.1563 C638.5469,61 638.5781,60.8125 638.5781,60.3906 L638.5781,58.9688 C638.5781,58.5313 638.5625,58.4063 638.4688,58.25 C638.3125,57.9844 638.0313,57.8438 637.7344,57.8438 C637.4375,57.8438 637.2344,57.9375 637.0156,58.25 L636.8438,58.1719 Z "/><text fill="#000000" font-family="sans-serif" font-size="12" lengthAdjust="spacingAndGlyphs" textLength="75" x="648.5" y="66.6543">Colaborador</text><line style="stroke: #A80036; stroke-width: 1.5;" x1="620.5" x2="725.5" y1="78.5" y2="78.5"/><text fill="#000000" font-family="sans-serif" font-size="11" lengthAdjust="spacingAndGlyphs" textLength="79" x="625.5" y="92.7104">-String funcao</text><text fill="#000000" font-family="sans-serif" font-size="11" lengthAdjust="spacingAndGlyphs" textLength="90" x="625.5" y="105.5151">-String telefone</text><!--MD5=[27c2d4bbe9f7b9d3b0ea2797cc54308a]
class Tarefa--><rect fill="#FEFECE" filter="url(#fwtuatsh04mob)" height="116.8281" id="Tarefa" style="stroke: #A80036; stroke-width: 1.5;" width="129" x="296" y="148"/><ellipse cx="337.55" cy="164" fill="#ADD1B2" rx="11" ry="11" style="stroke: #A80036; stroke-width: 1.0;"/><path d="M339.8938,159.6719 C338.9563,159.2344 338.3625,159.0938 337.4875,159.0938 C334.8625,159.0938 332.8625,161.1719 332.8625,163.8906 L332.8625,165.0156 C332.8625,167.5938 334.9719,169.4844 337.8625,169.4844 C339.0813,169.4844 340.2375,169.1875 340.9875,168.6406 C341.5656,168.2344 341.8938,167.7813 341.8938,167.3906 C341.8938,166.9375 341.5031,166.5469 341.0344,166.5469 C340.8156,166.5469 340.6125,166.625 340.425,166.8125 C339.9719,167.2969 339.9719,167.2969 339.7844,167.3906 C339.3625,167.6563 338.675,167.7813 337.9094,167.7813 C335.8625,167.7813 334.5656,166.6875 334.5656,164.9844 L334.5656,163.8906 C334.5656,162.1094 335.8156,160.7969 337.55,160.7969 C338.1281,160.7969 338.7375,160.9531 339.2063,161.2031 C339.6906,161.4844 339.8625,161.7031 339.9563,162.1094 C340.0188,162.5156 340.05,162.6406 340.1906,162.7656 C340.3313,162.9063 340.5656,163.0156 340.7844,163.0156 C341.05,163.0156 341.3156,162.875 341.4875,162.6563 C341.5969,162.5 341.6281,162.3125 341.6281,161.8906 L341.6281,160.4688 C341.6281,160.0313 341.6125,159.9063 341.5188,159.75 C341.3625,159.4844 341.0813,159.3438 340.7844,159.3438 C340.4875,159.3438 340.2844,159.4375 340.0656,159.75 L339.8938,159.6719 Z "/><text fill="#000000" font-family="sans-serif" font-size="12" lengthAdjust="spacingAndGlyphs" textLength="38" x="357.45" y="168.1543">Tarefa</text><line style="stroke: #A80036; stroke-width: 1.5;" x1="297" x2="424" y1="180" y2="180"/><text fill="#000000" font-family="sans-serif" font-size="11" lengthAdjust="spacingAndGlyphs" textLength="53" x="302" y="194.2104">-String ID</text><text fill="#000000" font-family="sans-serif" font-size="11" lengthAdjust="spacingAndGlyphs" textLength="72" x="302" y="207.0151">-String desig</text><text fill="#000000" font-family="sans-serif" font-size="11" lengthAdjust="spacingAndGlyphs" textLength="103" x="302" y="219.8198">-String descBreve</text><text fill="#000000" font-family="sans-serif" font-size="11" lengthAdjust="spacingAndGlyphs" textLength="92" x="302" y="232.6245">-double duracao</text><text fill="#000000" font-family="sans-serif" font-size="11" lengthAdjust="spacingAndGlyphs" textLength="77" x="302" y="245.4292">-double custo</text><text fill="#000000" font-family="sans-serif" font-size="11" lengthAdjust="spacingAndGlyphs" textLength="117" x="302" y="258.2339">-Categoria catTarefa</text><!--MD5=[7831921039fdf30f93fd458ad87e084f]
class DescTarefaConcluida--><rect fill="#FEFECE" filter="url(#fwtuatsh04mob)" height="99.2188" id="DescTarefaConcluida" style="stroke: #A80036; stroke-width: 1.5;" width="159" x="885" y="30"/><ellipse cx="900" cy="46" fill="#ADD1B2" rx="11" ry="11" style="stroke: #A80036; stroke-width: 1.0;"/><path d="M902.3438,41.6719 C901.4063,41.2344 900.8125,41.0938 899.9375,41.0938 C897.3125,41.0938 895.3125,43.1719 895.3125,45.8906 L895.3125,47.0156 C895.3125,49.5938 897.4219,51.4844 900.3125,51.4844 C901.5313,51.4844 902.6875,51.1875 903.4375,50.6406 C904.0156,50.2344 904.3438,49.7813 904.3438,49.3906 C904.3438,48.9375 903.9531,48.5469 903.4844,48.5469 C903.2656,48.5469 903.0625,48.625 902.875,48.8125 C902.4219,49.2969 902.4219,49.2969 902.2344,49.3906 C901.8125,49.6563 901.125,49.7813 900.3594,49.7813 C898.3125,49.7813 897.0156,48.6875 897.0156,46.9844 L897.0156,45.8906 C897.0156,44.1094 898.2656,42.7969 900,42.7969 C900.5781,42.7969 901.1875,42.9531 901.6563,43.2031 C902.1406,43.4844 902.3125,43.7031 902.4063,44.1094 C902.4688,44.5156 902.5,44.6406 902.6406,44.7656 C902.7813,44.9063 903.0156,45.0156 903.2344,45.0156 C903.5,45.0156 903.7656,44.875 903.9375,44.6563 C904.0469,44.5 904.0781,44.3125 904.0781,43.8906 L904.0781,42.4688 C904.0781,42.0313 904.0625,41.9063 903.9688,41.75 C903.8125,41.4844 903.5313,41.3438 903.2344,41.3438 C902.9375,41.3438 902.7344,41.4375 902.5156,41.75 L902.3438,41.6719 Z "/><text fill="#000000" font-family="sans-serif" font-size="12" lengthAdjust="spacingAndGlyphs" textLength="127" x="914" y="50.1543">DescTarefaConcluida</text><line style="stroke: #A80036; stroke-width: 1.5;" x1="886" x2="1043" y1="62" y2="62"/><text fill="#000000" font-family="sans-serif" font-size="11" lengthAdjust="spacingAndGlyphs" textLength="124" x="891" y="76.2104">-String dataConclusao</text><text fill="#000000" font-family="sans-serif" font-size="11" lengthAdjust="spacingAndGlyphs" textLength="54" x="891" y="89.0151">-int delay</text><text fill="#000000" font-family="sans-serif" font-size="11" lengthAdjust="spacingAndGlyphs" textLength="126" x="891" y="101.8198">-String descQualidade</text><line style="stroke: #A80036; stroke-width: 1.0;" x1="886" x2="1043" y1="108.4141" y2="108.4141"/><text fill="#000000" font-family="sans-serif" font-size="11" lengthAdjust="spacingAndGlyphs" textLength="113" x="891" y="122.6245">GeneratePayment()</text><!--MD5=[1f687b5315377fe49fca59b457947463]
class Freelancer--><rect fill="#FEFECE" filter="url(#fwtuatsh04mob)" height="116.8281" id="Freelancer" style="stroke: #A80036; stroke-width: 1.5;" width="136" x="605" y="148"/><ellipse cx="637.55" cy="164" fill="#ADD1B2" rx="11" ry="11" style="stroke: #A80036; stroke-width: 1.0;"/><path d="M639.8938,159.6719 C638.9563,159.2344 638.3625,159.0938 637.4875,159.0938 C634.8625,159.0938 632.8625,161.1719 632.8625,163.8906 L632.8625,165.0156 C632.8625,167.5938 634.9719,169.4844 637.8625,169.4844 C639.0813,169.4844 640.2375,169.1875 640.9875,168.6406 C641.5656,168.2344 641.8938,167.7813 641.8938,167.3906 C641.8938,166.9375 641.5031,166.5469 641.0344,166.5469 C640.8156,166.5469 640.6125,166.625 640.425,166.8125 C639.9719,167.2969 639.9719,167.2969 639.7844,167.3906 C639.3625,167.6563 638.675,167.7813 637.9094,167.7813 C635.8625,167.7813 634.5656,166.6875 634.5656,164.9844 L634.5656,163.8906 C634.5656,162.1094 635.8156,160.7969 637.55,160.7969 C638.1281,160.7969 638.7375,160.9531 639.2063,161.2031 C639.6906,161.4844 639.8625,161.7031 639.9563,162.1094 C640.0188,162.5156 640.05,162.6406 640.1906,162.7656 C640.3313,162.9063 640.5656,163.0156 640.7844,163.0156 C641.05,163.0156 641.3156,162.875 641.4875,162.6563 C641.5969,162.5 641.6281,162.3125 641.6281,161.8906 L641.6281,160.4688 C641.6281,160.0313 641.6125,159.9063 641.5188,159.75 C641.3625,159.4844 641.0813,159.3438 640.7844,159.3438 C640.4875,159.3438 640.2844,159.4375 640.0656,159.75 L639.8938,159.6719 Z "/><text fill="#000000" font-family="sans-serif" font-size="12" lengthAdjust="spacingAndGlyphs" textLength="65" x="655.45" y="168.1543">Freelancer</text><line style="stroke: #A80036; stroke-width: 1.5;" x1="606" x2="740" y1="180" y2="180"/><text fill="#000000" font-family="sans-serif" font-size="11" lengthAdjust="spacingAndGlyphs" textLength="53" x="611" y="194.2104">-String ID</text><text fill="#000000" font-family="sans-serif" font-size="11" lengthAdjust="spacingAndGlyphs" textLength="124" x="611" y="207.0151">-GrauProficiencia grau</text><text fill="#000000" font-family="sans-serif" font-size="11" lengthAdjust="spacingAndGlyphs" textLength="58" x="611" y="219.8198">-String NIF</text><text fill="#000000" font-family="sans-serif" font-size="11" lengthAdjust="spacingAndGlyphs" textLength="96" x="611" y="232.6245">-String endereco</text><text fill="#000000" font-family="sans-serif" font-size="11" lengthAdjust="spacingAndGlyphs" textLength="65" x="611" y="245.4292">-String iban</text><text fill="#000000" font-family="sans-serif" font-size="11" lengthAdjust="spacingAndGlyphs" textLength="64" x="611" y="258.2339">-String pais</text><!--MD5=[5dd1d6732c071e710b9290b531f2fa3b]
class Utilizador--><rect fill="#FEFECE" filter="url(#fwtuatsh04mob)" height="78.4141" id="Utilizador" style="stroke: #A80036; stroke-width: 1.5;" width="106" x="911.5" y="165.5"/><ellipse cx="934.15" cy="181.5" fill="#ADD1B2" rx="11" ry="11" style="stroke: #A80036; stroke-width: 1.0;"/><path d="M936.4938,177.1719 C935.5563,176.7344 934.9625,176.5938 934.0875,176.5938 C931.4625,176.5938 929.4625,178.6719 929.4625,181.3906 L929.4625,182.5156 C929.4625,185.0938 931.5719,186.9844 934.4625,186.9844 C935.6813,186.9844 936.8375,186.6875 937.5875,186.1406 C938.1656,185.7344 938.4938,185.2813 938.4938,184.8906 C938.4938,184.4375 938.1031,184.0469 937.6344,184.0469 C937.4156,184.0469 937.2125,184.125 937.025,184.3125 C936.5719,184.7969 936.5719,184.7969 936.3844,184.8906 C935.9625,185.1563 935.275,185.2813 934.5094,185.2813 C932.4625,185.2813 931.1656,184.1875 931.1656,182.4844 L931.1656,181.3906 C931.1656,179.6094 932.4156,178.2969 934.15,178.2969 C934.7281,178.2969 935.3375,178.4531 935.8063,178.7031 C936.2906,178.9844 936.4625,179.2031 936.5563,179.6094 C936.6188,180.0156 936.65,180.1406 936.7906,180.2656 C936.9313,180.4063 937.1656,180.5156 937.3844,180.5156 C937.65,180.5156 937.9156,180.375 938.0875,180.1563 C938.1969,180 938.2281,179.8125 938.2281,179.3906 L938.2281,177.9688 C938.2281,177.5313 938.2125,177.4063 938.1188,177.25 C937.9625,176.9844 937.6813,176.8438 937.3844,176.8438 C937.0875,176.8438 936.8844,176.9375 936.6656,177.25 L936.4938,177.1719 Z "/><text fill="#000000" font-family="sans-serif" font-size="12" lengthAdjust="spacingAndGlyphs" textLength="57" x="949.85" y="185.6543">Utilizador</text><line style="stroke: #A80036; stroke-width: 1.5;" x1="912.5" x2="1016.5" y1="197.5" y2="197.5"/><text fill="#000000" font-family="sans-serif" font-size="11" lengthAdjust="spacingAndGlyphs" textLength="74" x="917.5" y="211.7104">-String nome</text><text fill="#000000" font-family="sans-serif" font-size="11" lengthAdjust="spacingAndGlyphs" textLength="73" x="917.5" y="224.5151">-String email</text><text fill="#000000" font-family="sans-serif" font-size="11" lengthAdjust="spacingAndGlyphs" textLength="94" x="917.5" y="237.3198">-String password</text><!--MD5=[6a7c57800a31452a20aa2f5037e36afb]
link Freelancer to Utilizador--><path d="M741.145,206.0361 C792.925,205.6784 863.517,205.1907 911.158,204.8616 " fill="none" id="Freelancer-Utilizador" style="stroke: #A80036; stroke-width: 1.0;"/><text fill="#000000" font-family="sans-serif" font-size="13" lengthAdjust="spacingAndGlyphs" textLength="69" x="772" y="200.5669">atua como</text><polygon fill="#000000" points="844,194.5664,850,197.5664,844,200.5664,844,194.5664" style="stroke: #000000; stroke-width: 1.0;"/><text fill="#000000" font-family="sans-serif" font-size="13" lengthAdjust="spacingAndGlyphs" textLength="24" x="749.0343" y="218.8106">0..1</text><text fill="#000000" font-family="sans-serif" font-size="13" lengthAdjust="spacingAndGlyphs" textLength="8" x="895.4527" y="217.966">1</text><!--MD5=[bcb5794e8184ce78d304f04a5beabbc0]
link Colaborador to Utilizador--><path d="M726.762,102.282 C779.114,124.886 858.876,159.326 911.101,181.875 " fill="none" id="Colaborador-Utilizador" style="stroke: #A80036; stroke-width: 1.0;"/><text fill="#000000" font-family="sans-serif" font-size="13" lengthAdjust="spacingAndGlyphs" textLength="69" x="772" y="119.5669">atua como</text><polygon fill="#000000" points="844,113.5664,850,116.5664,844,119.5664,844,113.5664" style="stroke: #000000; stroke-width: 1.0;"/><text fill="#000000" font-family="sans-serif" font-size="13" lengthAdjust="spacingAndGlyphs" textLength="24" x="734.3657" y="117.8805">0..1</text><text fill="#000000" font-family="sans-serif" font-size="13" lengthAdjust="spacingAndGlyphs" textLength="8" x="895.388" y="191.8906">1</text><!--MD5=[1c2ad462e362697fcdc859a6327d55c7]
link Plataforma to Organizacao--><path d="M124.337,60.5 C177.331,60.5 254.85,60.5 306.21,60.5 " fill="none" id="Plataforma-Organizacao" style="stroke: #A80036; stroke-width: 1.0;"/><text fill="#000000" font-family="sans-serif" font-size="13" lengthAdjust="spacingAndGlyphs" textLength="97" x="155" y="56.5669">tem registadas</text><polygon fill="#000000" points="255,50.5664,261,53.5664,255,56.5664,255,50.5664" style="stroke: #000000; stroke-width: 1.0;"/><text fill="#000000" font-family="sans-serif" font-size="13" lengthAdjust="spacingAndGlyphs" textLength="8" x="132.0562" y="73.501">1</text><text fill="#000000" font-family="sans-serif" font-size="13" lengthAdjust="spacingAndGlyphs" textLength="7" x="291.4445" y="73.5821">*</text><!--MD5=[ebe0b2adceebb6ee2636cb1948c7c8a9]
link Tarefa to Colaborador--><path d="M425.084,180.4932 C482.391,157.053 565.662,122.994 619.329,101.043 " fill="none" id="Tarefa-Colaborador" style="stroke: #A80036; stroke-width: 1.0;"/><text fill="#000000" font-family="sans-serif" font-size="13" lengthAdjust="spacingAndGlyphs" textLength="105" x="456" y="116.5669">especificada por</text><polygon fill="#000000" points="564,110.5664,570,113.5664,564,116.5664,564,110.5664" style="stroke: #000000; stroke-width: 1.0;"/><text fill="#000000" font-family="sans-serif" font-size="13" lengthAdjust="spacingAndGlyphs" textLength="7" x="432.9562" y="190.4379">*</text><text fill="#000000" font-family="sans-serif" font-size="13" lengthAdjust="spacingAndGlyphs" textLength="8" x="603.5795" y="117.0477">1</text><!--MD5=[567db691f9836c63f305bad1024cbc66]
link Organizacao to Colaborador--><path d="M414.524,63.745 C471.769,67.248 562.395,72.793 619.454,76.285 " fill="none" id="Organizacao-Colaborador" style="stroke: #A80036; stroke-width: 1.0;"/><text fill="#000000" font-family="sans-serif" font-size="13" lengthAdjust="spacingAndGlyphs" textLength="26" x="495.5" y="62.5669">tem</text><polygon fill="#000000" points="524.5,56.5664,530.5,59.5664,524.5,62.5664,524.5,56.5664" style="stroke: #000000; stroke-width: 1.0;"/><text fill="#000000" font-family="sans-serif" font-size="13" lengthAdjust="spacingAndGlyphs" textLength="8" x="422.321" y="77.2631">1</text><text fill="#000000" font-family="sans-serif" font-size="13" lengthAdjust="spacingAndGlyphs" textLength="23" x="588.5265" y="88.906">1..*</text><!--MD5=[2631878087fc54ee02df8e3d740dab8b]
link Colaborador to DescTarefaConcluida--><path d="M726.762,79.5 C770.959,79.5 834.693,79.5 884.9,79.5 " fill="none" id="Colaborador-DescTarefaConcluida" style="stroke: #A80036; stroke-width: 1.0;"/><text fill="#000000" font-family="sans-serif" font-size="13" lengthAdjust="spacingAndGlyphs" textLength="64" x="774.5" y="75.5669">especifica</text><polygon fill="#000000" points="841.5,69.5664,847.5,72.5664,841.5,75.5664,841.5,69.5664" style="stroke: #000000; stroke-width: 1.0;"/><text fill="#000000" font-family="sans-serif" font-size="13" lengthAdjust="spacingAndGlyphs" textLength="24" x="734.3657" y="92.4643">0..1</text><text fill="#000000" font-family="sans-serif" font-size="13" lengthAdjust="spacingAndGlyphs" textLength="7" x="869.9795" y="92.2776">*</text><!--MD5=[d764b1c7bde36201b9cf57fabebbadcf]
link Tarefa to Freelancer--><path d="M425.084,206.5 C477.424,206.5 551.42,206.5 604.741,206.5 " fill="none" id="Tarefa-Freelancer" style="stroke: #A80036; stroke-width: 1.0;"/><text fill="#000000" font-family="sans-serif" font-size="13" lengthAdjust="spacingAndGlyphs" textLength="85" x="466" y="202.5669">concluida por</text><polygon fill="#000000" points="554,196.5664,560,199.5664,554,202.5664,554,196.5664" style="stroke: #000000; stroke-width: 1.0;"/><text fill="#000000" font-family="sans-serif" font-size="13" lengthAdjust="spacingAndGlyphs" textLength="7" x="432.9562" y="219.4517">*</text><text fill="#000000" font-family="sans-serif" font-size="13" lengthAdjust="spacingAndGlyphs" textLength="8" x="588.8377" y="219.4039">1</text><!--MD5=[c2ca9cd95ffe5ebbbf08952a83a2d50a]
@startuml
skinparam classAttributeIconSize 0
hide methods
left to right direction

class Plataforma {
  -String designacao
}

class Organizacao {
  -String nome
  -String NIF
  -String website
  -String telefone
  -String email
}

class Colaborador {
  -String funcao
  -String telefone
}


class Tarefa {
  -String ID
  -String desig
  -String descBreve
  -double duracao
  -double custo
  -Categoria catTarefa
}

class DescTarefaConcluida {
  -String dataConclusao
  -int delay
  -String descQualidade
  - -
  GeneratePayment()
}

class Freelancer {
    -String ID
    -GrauProficiencia grau
    -String NIF
    -String endereco
    -String iban
    -String pais
}

class Utilizador {
  -String nome
  -String email
  -String password
}


Freelancer "0..1" - - "1" Utilizador: atua como >
Colaborador "0..1" - - "1" Utilizador: atua como >
Plataforma "1" - - "*" Organizacao : tem registadas >
Tarefa "*" - - "1" Colaborador: especificada por >

Organizacao "1" - - "1..*" Colaborador: tem >

Colaborador "0..1" - - "*" DescTarefaConcluida: especifica >
Tarefa "*" - - "1" Freelancer: concluida por >
@enduml

PlantUML version 1.2020.11(Sat May 30 10:13:43 UTC 2020)
(GPL source distribution)
Java Runtime: Java(TM) SE Runtime Environment
JVM: Java HotSpot(TM) 64-Bit Server VM
Default Encoding: UTF-8
Language: en
Country: US
--></g></svg>