<?xml version="1.0" encoding="UTF-8"?>
<!DOCTYPE svg PUBLIC '-//W3C//DTD SVG 1.0//EN'
          'http://www.w3.org/TR/2001/REC-SVG-20010904/DTD/svg10.dtd'>
<svg fill-opacity="0" xmlns:xlink="http://www.w3.org/1999/xlink" color-rendering="auto" color-interpolation="auto" text-rendering="auto" stroke="rgb(0,0,0)" stroke-linecap="square" width="1872" stroke-miterlimit="10" shape-rendering="auto" stroke-opacity="0" fill="rgb(0,0,0)" stroke-dasharray="none" font-weight="normal" stroke-width="1" height="774" xmlns="http://www.w3.org/2000/svg" font-family="'Dialog'" font-style="normal" stroke-linejoin="miter" font-size="12px" stroke-dashoffset="0" image-rendering="auto"
><!--Generated by the Batik Graphics2D SVG Generator--><defs id="genericDefs"
  /><g
  ><defs id="defs1"
    ><clipPath clipPathUnits="userSpaceOnUse" id="clipPath1"
      ><path d="M-7 -7 L119 -7 L119 780 L-7 780 L-7 -7 Z"
      /></clipPath
      ><clipPath clipPathUnits="userSpaceOnUse" id="clipPath2"
      ><path d="M-7 -7 L71 -7 L71 780 L-7 780 L-7 -7 Z"
      /></clipPath
      ><clipPath clipPathUnits="userSpaceOnUse" id="clipPath3"
      ><path d="M-7 -7 L19 -7 L19 95 L-7 95 L-7 -7 Z"
      /></clipPath
      ><clipPath clipPathUnits="userSpaceOnUse" id="clipPath4"
      ><path d="M-7 -7 L19 -7 L19 384 L-7 384 L-7 -7 Z"
      /></clipPath
      ><clipPath clipPathUnits="userSpaceOnUse" id="clipPath5"
      ><path d="M-7 -7 L144 -7 L144 780 L-7 780 L-7 -7 Z"
      /></clipPath
      ><clipPath clipPathUnits="userSpaceOnUse" id="clipPath6"
      ><path d="M-7 -7 L106 -7 L106 780 L-7 780 L-7 -7 Z"
      /></clipPath
      ><clipPath clipPathUnits="userSpaceOnUse" id="clipPath7"
      ><path d="M-7 -7 L19 -7 L19 23 L-7 23 L-7 -7 Z"
      /></clipPath
      ><clipPath clipPathUnits="userSpaceOnUse" id="clipPath8"
      ><path d="M-7 -7 L81 -7 L81 780 L-7 780 L-7 -7 Z"
      /></clipPath
      ><clipPath clipPathUnits="userSpaceOnUse" id="clipPath9"
      ><path d="M-7 -7 L127 -7 L127 780 L-7 780 L-7 -7 Z"
      /></clipPath
      ><clipPath clipPathUnits="userSpaceOnUse" id="clipPath10"
      ><path d="M-7 -7 L94 -7 L94 780 L-7 780 L-7 -7 Z"
      /></clipPath
      ><clipPath clipPathUnits="userSpaceOnUse" id="clipPath11"
      ><path d="M-7 -7 L92 -7 L92 780 L-7 780 L-7 -7 Z"
      /></clipPath
      ><clipPath clipPathUnits="userSpaceOnUse" id="clipPath12"
      ><path d="M-7 -7 L19 -7 L19 298 L-7 298 L-7 -7 Z"
      /></clipPath
      ><clipPath clipPathUnits="userSpaceOnUse" id="clipPath13"
      ><path d="M-7 -7 L107 -7 L107 780 L-7 780 L-7 -7 Z"
      /></clipPath
      ><clipPath clipPathUnits="userSpaceOnUse" id="clipPath14"
      ><path d="M-7 -7 L19 -7 L19 106 L-7 106 L-7 -7 Z"
      /></clipPath
      ><clipPath clipPathUnits="userSpaceOnUse" id="clipPath15"
      ><path d="M-7 -7 L81 -7 L81 330 L-7 330 L-7 -7 Z"
      /></clipPath
      ><clipPath clipPathUnits="userSpaceOnUse" id="clipPath16"
      ><path d="M-7 -7 L19 -7 L19 172 L-7 172 L-7 -7 Z"
      /></clipPath
      ><clipPath clipPathUnits="userSpaceOnUse" id="clipPath17"
      ><path d="M-7 -7 L19 -7 L19 69 L-7 69 L-7 -7 Z"
      /></clipPath
      ><clipPath clipPathUnits="userSpaceOnUse" id="clipPath18"
      ><path d="M-7 -7 L19 -7 L19 108 L-7 108 L-7 -7 Z"
      /></clipPath
      ><clipPath clipPathUnits="userSpaceOnUse" id="clipPath19"
      ><path d="M-70 -30 L140 -30 L140 60 L-70 60 L-70 -30 Z"
      /></clipPath
      ><clipPath clipPathUnits="userSpaceOnUse" id="clipPath20"
      ><path d="M-96 -15 L192 -15 L192 30 L-96 30 L-96 -15 Z"
      /></clipPath
      ><clipPath clipPathUnits="userSpaceOnUse" id="clipPath21"
      ><path d="M-108 -15 L216 -15 L216 30 L-108 30 L-108 -15 Z"
      /></clipPath
      ><clipPath clipPathUnits="userSpaceOnUse" id="clipPath22"
      ><path d="M-81 -30 L162 -30 L162 60 L-81 60 L-81 -30 Z"
      /></clipPath
      ><clipPath clipPathUnits="userSpaceOnUse" id="clipPath23"
      ><path d="M-83 -30 L166 -30 L166 60 L-83 60 L-83 -30 Z"
      /></clipPath
      ><clipPath clipPathUnits="userSpaceOnUse" id="clipPath24"
      ><path d="M-116 -30 L232 -30 L232 60 L-116 60 L-116 -30 Z"
      /></clipPath
      ><clipPath clipPathUnits="userSpaceOnUse" id="clipPath25"
      ><path d="M-95 -30 L190 -30 L190 60 L-95 60 L-95 -30 Z"
      /></clipPath
      ><clipPath clipPathUnits="userSpaceOnUse" id="clipPath26"
      ><path d="M-133 -15 L266 -15 L266 30 L-133 30 L-133 -15 Z"
      /></clipPath
      ><clipPath clipPathUnits="userSpaceOnUse" id="clipPath27"
      ><path d="M-85 -15 L170 -15 L170 30 L-85 30 L-85 -15 Z"
      /></clipPath
      ><clipPath clipPathUnits="userSpaceOnUse" id="clipPath28"
      ><path d="M0 0 L394 0 L394 104 L0 104 L0 0 Z"
      /></clipPath
      ><clipPath clipPathUnits="userSpaceOnUse" id="clipPath29"
      ><path d="M89 3 L89 18 L4 18 L4 3 ZM282 30 L282 45 L105 45 L105 30 ZM0 0 L0 104 L71 104 L71 61 L316 61 L316 104 L394 104 L394 0 Z"
      /></clipPath
      ><clipPath clipPathUnits="userSpaceOnUse" id="clipPath30"
      ><path d="M280 75 L280 90 L105 90 L105 75 ZM0 0 L0 104 L372 104 L372 90 L394 90 L394 0 L316 0 L316 47 L71 47 L71 0 Z"
      /></clipPath
      ><clipPath clipPathUnits="userSpaceOnUse" id="clipPath31"
      ><path d="M280 30 L280 45 L105 45 L105 30 ZM0 0 L0 104 L394 104 L394 60 L372 60 L372 45 L394 45 L394 0 L316 0 L316 2 L71 2 L71 0 Z"
      /></clipPath
      ><clipPath clipPathUnits="userSpaceOnUse" id="clipPath32"
      ><path d="M0 0 L405 0 L405 115 L0 115 L0 0 Z"
      /></clipPath
      ><clipPath clipPathUnits="userSpaceOnUse" id="clipPath33"
      ><path d="M324 34 L324 50 L75 50 L75 34 ZM261 73 L261 89 L136 89 L136 73 ZM0 0 L0 115 L405 115 L405 0 Z"
      /></clipPath
      ><clipPath clipPathUnits="userSpaceOnUse" id="clipPath34"
      ><path d="M261 34 L261 50 L136 50 L136 34 ZM0 0 L0 115 L405 115 L405 0 L324 0 L324 11 L75 11 L75 0 Z"
      /></clipPath
      ><clipPath clipPathUnits="userSpaceOnUse" id="clipPath35"
      ><path d="M302 34 L302 50 L100 50 L100 34 ZM0 0 L0 115 L405 115 L405 0 Z"
      /></clipPath
      ><clipPath clipPathUnits="userSpaceOnUse" id="clipPath36"
      ><path d="M315 30 L315 45 L74 45 L74 30 ZM0 0 L0 104 L394 104 L394 94 L377 94 L377 79 L394 79 L394 58 L336 58 L336 43 L394 43 L394 0 Z"
      /></clipPath
      ><clipPath clipPathUnits="userSpaceOnUse" id="clipPath37"
      ><path d="M0 0 L474 0 L474 104 L0 104 L0 0 Z"
      /></clipPath
      ><clipPath clipPathUnits="userSpaceOnUse" id="clipPath38"
      ><path d="M324 30 L324 45 L150 45 L150 30 ZM411 73 L411 88 L202 88 L202 73 ZM0 0 L0 104 L474 104 L474 0 L256 0 L256 8 L79 8 L79 0 Z"
      /></clipPath
      ><clipPath clipPathUnits="userSpaceOnUse" id="clipPath39"
      ><path d="M0 0 L619 0 L619 104 L0 104 L0 0 Z"
      /></clipPath
      ><clipPath clipPathUnits="userSpaceOnUse" id="clipPath40"
      ><path d="M411 30 L411 45 L202 45 L202 30 ZM503 75 L503 90 L223 90 L223 75 ZM0 0 L0 104 L619 104 L619 0 L324 0 L324 2 L150 2 L150 0 Z"
      /></clipPath
      ><clipPath clipPathUnits="userSpaceOnUse" id="clipPath41"
      ><path d="M0 0 L731 0 L731 104 L0 104 L0 0 Z"
      /></clipPath
      ><clipPath clipPathUnits="userSpaceOnUse" id="clipPath42"
      ><path d="M503 30 L503 45 L223 45 L223 30 ZM505 66 L505 81 L353 81 L353 66 ZM0 0 L0 104 L731 104 L731 0 Z"
      /></clipPath
      ><clipPath clipPathUnits="userSpaceOnUse" id="clipPath43"
      ><path d="M0 0 L221 0 L221 104 L0 104 L0 0 Z"
      /></clipPath
      ><clipPath clipPathUnits="userSpaceOnUse" id="clipPath44"
      ><path d="M178 30 L178 45 L38 45 L38 30 ZM0 0 L0 17 L17 17 L17 32 L0 32 L0 104 L150 104 L150 103 L221 103 L221 81 L79 81 L79 66 L221 66 L221 0 Z"
      /></clipPath
      ><clipPath clipPathUnits="userSpaceOnUse" id="clipPath45"
      ><path d="M0 0 L340 0 L340 104 L0 104 L0 0 Z"
      /></clipPath
      ><clipPath clipPathUnits="userSpaceOnUse" id="clipPath46"
      ><path d="M256 30 L256 45 L79 45 L79 30 ZM324 67 L324 82 L150 82 L150 67 ZM0 0 L0 104 L340 104 L340 0 L178 0 L178 9 L38 9 L38 0 Z"
      /></clipPath
      ><clipPath clipPathUnits="userSpaceOnUse" id="clipPath47"
      ><path d="M0 0 L862 0 L862 104 L0 104 L0 0 Z"
      /></clipPath
      ><clipPath clipPathUnits="userSpaceOnUse" id="clipPath48"
      ><path d="M505 30 L505 45 L353 45 L353 30 ZM626 72 L626 87 L335 87 L335 72 ZM0 0 L0 104 L862 104 L862 0 L503 0 L503 9 L223 9 L223 0 Z"
      /></clipPath
      ><clipPath clipPathUnits="userSpaceOnUse" id="clipPath49"
      ><path d="M0 0 L983 0 L983 115 L0 115 L0 0 Z"
      /></clipPath
      ><clipPath clipPathUnits="userSpaceOnUse" id="clipPath50"
      ><path d="M632 34 L632 49 L341 49 L341 34 ZM0 0 L0 115 L962 115 L962 104 L983 104 L983 59 L952 59 L952 44 L983 44 L983 0 L511 0 L511 7 L359 7 L359 0 Z"
      /></clipPath
      ><clipPath clipPathUnits="userSpaceOnUse" id="clipPath51"
      ><path d="M0 0 L394 0 L394 115 L0 115 L0 0 Z"
      /></clipPath
      ><clipPath clipPathUnits="userSpaceOnUse" id="clipPath52"
      ><path d="M311 35 L311 50 L76 50 L76 35 ZM242 95 L242 109 L86 109 L86 95 ZM0 0 L0 115 L394 115 L394 69 L334 69 L334 39 L394 39 L394 0 Z"
      /></clipPath
      ><clipPath clipPathUnits="userSpaceOnUse" id="clipPath53"
      ><path d="M0 0 L146 0 L146 135 L0 135 L0 0 Z"
      /></clipPath
      ><clipPath clipPathUnits="userSpaceOnUse" id="clipPath54"
      ><path d="M0 0 L0 135 L146 135 L146 70 L86 70 L86 56 L146 56 L146 11 L76 11 L76 0 Z"
      /></clipPath
      ><clipPath clipPathUnits="userSpaceOnUse" id="clipPath55"
      ><path d="M0 0 L406 0 L406 115 L0 115 L0 0 Z"
      /></clipPath
      ><clipPath clipPathUnits="userSpaceOnUse" id="clipPath56"
      ><path d="M258 34 L258 50 L144 50 L144 34 ZM0 0 L0 115 L406 115 L406 0 Z"
      /></clipPath
      ><clipPath clipPathUnits="userSpaceOnUse" id="clipPath57"
      ><path d="M565 35 L565 50 L414 50 L414 35 ZM0 0 L0 115 L983 115 L983 89 L961 89 L961 74 L983 74 L983 0 Z"
      /></clipPath
      ><clipPath clipPathUnits="userSpaceOnUse" id="clipPath58"
      ><path d="M0 0 L145 0 L145 135 L0 135 L0 0 Z"
      /></clipPath
      ><clipPath clipPathUnits="userSpaceOnUse" id="clipPath59"
      ><path d="M0 0 L0 135 L145 135 L145 118 L85 118 L85 102 L145 102 L145 71 L85 71 L85 56 L145 56 L145 0 Z"
      /></clipPath
      ><clipPath clipPathUnits="userSpaceOnUse" id="clipPath60"
      ><path d="M0 0 L0 135 L145 135 L145 71 L85 71 L85 55 L145 55 L145 24 L85 24 L85 9 L145 9 L145 0 Z"
      /></clipPath
      ><clipPath clipPathUnits="userSpaceOnUse" id="clipPath61"
      ><path d="M-146 -16 L292 -16 L292 32 L-146 32 L-146 -16 Z"
      /></clipPath
      ><clipPath clipPathUnits="userSpaceOnUse" id="clipPath62"
      ><path d="M-156 -15 L312 -15 L312 30 L-156 30 L-156 -15 Z"
      /></clipPath
      ><clipPath clipPathUnits="userSpaceOnUse" id="clipPath63"
      ><path d="M-151 -15 L302 -15 L302 30 L-151 30 L-151 -15 Z"
      /></clipPath
      ><clipPath clipPathUnits="userSpaceOnUse" id="clipPath64"
      ><path d="M-114 -16 L228 -16 L228 32 L-114 32 L-114 -16 Z"
      /></clipPath
      ><clipPath clipPathUnits="userSpaceOnUse" id="clipPath65"
      ><path d="M-156 -14 L312 -14 L312 28 L-156 28 L-156 -14 Z"
      /></clipPath
      ><clipPath clipPathUnits="userSpaceOnUse" id="clipPath66"
      ><path d="M-235 -15 L470 -15 L470 30 L-235 30 L-235 -15 Z"
      /></clipPath
      ><clipPath clipPathUnits="userSpaceOnUse" id="clipPath67"
      ><path d="M-291 -15 L582 -15 L582 30 L-291 30 L-291 -15 Z"
      /></clipPath
      ><clipPath clipPathUnits="userSpaceOnUse" id="clipPath68"
      ><path d="M-152 -15 L304 -15 L304 30 L-152 30 L-152 -15 Z"
      /></clipPath
      ><clipPath clipPathUnits="userSpaceOnUse" id="clipPath69"
      ><path d="M-177 -15 L354 -15 L354 30 L-177 30 L-177 -15 Z"
      /></clipPath
      ><clipPath clipPathUnits="userSpaceOnUse" id="clipPath70"
      ><path d="M-140 -15 L280 -15 L280 30 L-140 30 L-140 -15 Z"
      /></clipPath
      ><clipPath clipPathUnits="userSpaceOnUse" id="clipPath71"
      ><path d="M-280 -15 L560 -15 L560 30 L-280 30 L-280 -15 Z"
      /></clipPath
      ><clipPath clipPathUnits="userSpaceOnUse" id="clipPath72"
      ><path d="M-209 -15 L418 -15 L418 30 L-209 30 L-209 -15 Z"
      /></clipPath
      ><clipPath clipPathUnits="userSpaceOnUse" id="clipPath73"
      ><path d="M-174 -15 L348 -15 L348 30 L-174 30 L-174 -15 Z"
      /></clipPath
      ><clipPath clipPathUnits="userSpaceOnUse" id="clipPath74"
      ><path d="M-241 -15 L482 -15 L482 30 L-241 30 L-241 -15 Z"
      /></clipPath
      ><clipPath clipPathUnits="userSpaceOnUse" id="clipPath75"
      ><path d="M-202 -16 L404 -16 L404 32 L-202 32 L-202 -16 Z"
      /></clipPath
      ><clipPath clipPathUnits="userSpaceOnUse" id="clipPath76"
      ><path d="M-125 -16 L250 -16 L250 32 L-125 32 L-125 -16 Z"
      /></clipPath
      ><clipPath clipPathUnits="userSpaceOnUse" id="clipPath77"
      ><path d="M-249 -16 L498 -16 L498 32 L-249 32 L-249 -16 Z"
      /></clipPath
      ><clipPath clipPathUnits="userSpaceOnUse" id="clipPath78"
      ><path d="M-175 -15 L350 -15 L350 30 L-175 30 L-175 -15 Z"
      /></clipPath
      ><clipPath clipPathUnits="userSpaceOnUse" id="clipPath79"
      ><path d="M-245 -48 L490 -48 L490 96 L-245 96 L-245 -48 Z"
      /></clipPath
    ></defs
    ><g fill="white" text-rendering="geometricPrecision" fill-opacity="1" stroke-opacity="1" stroke="white"
    ><rect x="0" width="1872" height="774" y="0" stroke="none"
    /></g
    ><g font-size="11px" transform="translate(288,2)" fill-opacity="1" fill="rgb(122,207,245)" text-rendering="geometricPrecision" image-rendering="optimizeQuality" font-family="sans-serif" stroke="rgb(122,207,245)" stroke-opacity="1"
    ><rect x="0" width="107" height="35" y="0" clip-path="url(#clipPath1)" stroke="none"
    /></g
    ><g stroke-linecap="butt" font-size="11px" transform="translate(288,2)" fill-opacity="1" fill="black" text-rendering="geometricPrecision" image-rendering="optimizeQuality" font-family="sans-serif" stroke-linejoin="round" stroke="black" stroke-opacity="1" stroke-miterlimit="0"
    ><rect fill="none" x="0" width="107" height="35" y="0" clip-path="url(#clipPath1)"
      /><line clip-path="url(#clipPath1)" fill="none" x1="53" x2="53" y1="35" y2="769" stroke-linejoin="bevel" stroke-dasharray="8,3"
    /></g
    ><g font-size="11px" transform="translate(14,2)" fill-opacity="1" fill="rgb(122,207,245)" text-rendering="geometricPrecision" image-rendering="optimizeQuality" font-family="sans-serif" stroke="rgb(122,207,245)" stroke-opacity="1"
    ><circle r="5" clip-path="url(#clipPath2)" cx="30" cy="5" stroke="none"
      /><rect x="26" width="8" height="718" y="50" clip-path="url(#clipPath2)" stroke="none"
    /></g
    ><g stroke-linecap="butt" font-size="11px" transform="translate(14,2)" fill-opacity="1" fill="black" text-rendering="geometricPrecision" image-rendering="optimizeQuality" font-family="sans-serif" stroke-linejoin="round" stroke="black" stroke-opacity="1" stroke-miterlimit="0"
    ><circle fill="none" r="5" clip-path="url(#clipPath2)" cx="30" cy="5"
      /><rect fill="none" x="26" width="8" height="718" y="50" clip-path="url(#clipPath2)"
      /><line y2="25" fill="none" x1="30" clip-path="url(#clipPath2)" x2="30" y1="10"
      /><line y2="36" fill="none" x1="30" clip-path="url(#clipPath2)" x2="21" y1="25"
      /><line y2="36" fill="none" x1="30" clip-path="url(#clipPath2)" x2="39" y1="25"
      /><line y2="16" fill="none" x1="21" clip-path="url(#clipPath2)" x2="39" y1="16"
    /></g
    ><g font-size="11px" transform="translate(338,84)" fill-opacity="1" fill="rgb(122,207,245)" text-rendering="geometricPrecision" image-rendering="optimizeQuality" font-family="sans-serif" stroke="rgb(122,207,245)" stroke-opacity="1"
    ><rect x="0" width="8" height="84" y="0" clip-path="url(#clipPath3)" stroke="none"
    /></g
    ><g stroke-linecap="butt" font-size="11px" transform="translate(338,84)" fill-opacity="1" fill="black" text-rendering="geometricPrecision" image-rendering="optimizeQuality" font-family="sans-serif" stroke-linejoin="round" stroke="black" stroke-opacity="1" stroke-miterlimit="0"
    ><rect fill="none" x="0" width="8" height="84" y="0" clip-path="url(#clipPath3)"
    /></g
    ><g font-size="11px" transform="translate(338,191)" fill-opacity="1" fill="rgb(122,207,245)" text-rendering="geometricPrecision" image-rendering="optimizeQuality" font-family="sans-serif" stroke="rgb(122,207,245)" stroke-opacity="1"
    ><rect x="0" width="8" height="373" y="0" clip-path="url(#clipPath4)" stroke="none"
    /></g
    ><g stroke-linecap="butt" font-size="11px" transform="translate(338,191)" fill-opacity="1" fill="black" text-rendering="geometricPrecision" image-rendering="optimizeQuality" font-family="sans-serif" stroke-linejoin="round" stroke="black" stroke-opacity="1" stroke-miterlimit="0"
    ><rect fill="none" x="0" width="8" height="373" y="0" clip-path="url(#clipPath4)"
    /></g
    ><g font-size="11px" transform="translate(574,2)" fill-opacity="1" fill="rgb(122,207,245)" text-rendering="geometricPrecision" image-rendering="optimizeQuality" font-family="sans-serif" stroke="rgb(122,207,245)" stroke-opacity="1"
    ><rect x="0" width="132" height="35" y="0" clip-path="url(#clipPath5)" stroke="none"
    /></g
    ><g stroke-linecap="butt" font-size="11px" transform="translate(574,2)" fill-opacity="1" fill="black" text-rendering="geometricPrecision" image-rendering="optimizeQuality" font-family="sans-serif" stroke-linejoin="round" stroke="black" stroke-opacity="1" stroke-miterlimit="0"
    ><rect fill="none" x="0" width="132" height="35" y="0" clip-path="url(#clipPath5)"
      /><line clip-path="url(#clipPath5)" fill="none" x1="66" x2="66" y1="35" y2="769" stroke-linejoin="bevel" stroke-dasharray="8,3"
    /></g
    ><g font-size="11px" transform="translate(971,2)" fill-opacity="1" fill="rgb(122,207,245)" text-rendering="geometricPrecision" image-rendering="optimizeQuality" font-family="sans-serif" stroke="rgb(122,207,245)" stroke-opacity="1"
    ><rect x="0" width="94" height="35" y="0" clip-path="url(#clipPath6)" stroke="none"
    /></g
    ><g stroke-linecap="butt" font-size="11px" transform="translate(971,2)" fill-opacity="1" fill="black" text-rendering="geometricPrecision" image-rendering="optimizeQuality" font-family="sans-serif" stroke-linejoin="round" stroke="black" stroke-opacity="1" stroke-miterlimit="0"
    ><rect fill="none" x="0" width="94" height="35" y="0" clip-path="url(#clipPath6)"
      /><line clip-path="url(#clipPath6)" fill="none" x1="47" x2="47" y1="35" y2="769" stroke-linejoin="bevel" stroke-dasharray="8,3"
    /></g
    ><g font-size="11px" transform="translate(1014,292)" fill-opacity="1" fill="rgb(122,207,245)" text-rendering="geometricPrecision" image-rendering="optimizeQuality" font-family="sans-serif" stroke="rgb(122,207,245)" stroke-opacity="1"
    ><rect x="0" width="8" height="12" y="0" clip-path="url(#clipPath7)" stroke="none"
    /></g
    ><g stroke-linecap="butt" font-size="11px" transform="translate(1014,292)" fill-opacity="1" fill="black" text-rendering="geometricPrecision" image-rendering="optimizeQuality" font-family="sans-serif" stroke-linejoin="round" stroke="black" stroke-opacity="1" stroke-miterlimit="0"
    ><rect fill="none" x="0" width="8" height="12" y="0" clip-path="url(#clipPath7)"
    /></g
    ><g font-size="11px" transform="translate(1128,2)" fill-opacity="1" fill="rgb(122,207,245)" text-rendering="geometricPrecision" image-rendering="optimizeQuality" font-family="sans-serif" stroke="rgb(122,207,245)" stroke-opacity="1"
    ><rect x="0" width="69" height="35" y="0" clip-path="url(#clipPath8)" stroke="none"
    /></g
    ><g stroke-linecap="butt" font-size="11px" transform="translate(1128,2)" fill-opacity="1" fill="black" text-rendering="geometricPrecision" image-rendering="optimizeQuality" font-family="sans-serif" stroke-linejoin="round" stroke="black" stroke-opacity="1" stroke-miterlimit="0"
    ><rect fill="none" x="0" width="69" height="35" y="0" clip-path="url(#clipPath8)"
      /><line clip-path="url(#clipPath8)" fill="none" x1="34" x2="34" y1="35" y2="769" stroke-linejoin="bevel" stroke-dasharray="8,3"
    /></g
    ><g font-size="11px" transform="translate(1159,335)" fill-opacity="1" fill="rgb(122,207,245)" text-rendering="geometricPrecision" image-rendering="optimizeQuality" font-family="sans-serif" stroke="rgb(122,207,245)" stroke-opacity="1"
    ><rect x="0" width="8" height="12" y="0" clip-path="url(#clipPath7)" stroke="none"
    /></g
    ><g stroke-linecap="butt" font-size="11px" transform="translate(1159,335)" fill-opacity="1" fill="black" text-rendering="geometricPrecision" image-rendering="optimizeQuality" font-family="sans-serif" stroke-linejoin="round" stroke="black" stroke-opacity="1" stroke-miterlimit="0"
    ><rect fill="none" x="0" width="8" height="12" y="0" clip-path="url(#clipPath7)"
    /></g
    ><g font-size="11px" transform="translate(1217,2)" fill-opacity="1" fill="rgb(122,207,245)" text-rendering="geometricPrecision" image-rendering="optimizeQuality" font-family="sans-serif" stroke="rgb(122,207,245)" stroke-opacity="1"
    ><rect x="0" width="115" height="35" y="0" clip-path="url(#clipPath9)" stroke="none"
    /></g
    ><g stroke-linecap="butt" font-size="11px" transform="translate(1217,2)" fill-opacity="1" fill="black" text-rendering="geometricPrecision" image-rendering="optimizeQuality" font-family="sans-serif" stroke-linejoin="round" stroke="black" stroke-opacity="1" stroke-miterlimit="0"
    ><rect fill="none" x="0" width="115" height="35" y="0" clip-path="url(#clipPath9)"
      /><line clip-path="url(#clipPath9)" fill="none" x1="57" x2="57" y1="35" y2="769" stroke-linejoin="bevel" stroke-dasharray="8,3"
    /></g
    ><g font-size="11px" transform="translate(1271,380)" fill-opacity="1" fill="rgb(122,207,245)" text-rendering="geometricPrecision" image-rendering="optimizeQuality" font-family="sans-serif" stroke="rgb(122,207,245)" stroke-opacity="1"
    ><rect x="0" width="8" height="12" y="0" clip-path="url(#clipPath7)" stroke="none"
    /></g
    ><g stroke-linecap="butt" font-size="11px" transform="translate(1271,380)" fill-opacity="1" fill="black" text-rendering="geometricPrecision" image-rendering="optimizeQuality" font-family="sans-serif" stroke-linejoin="round" stroke="black" stroke-opacity="1" stroke-miterlimit="0"
    ><rect fill="none" x="0" width="8" height="12" y="0" clip-path="url(#clipPath7)"
    /></g
    ><g font-size="11px" transform="translate(724,2)" fill-opacity="1" fill="rgb(122,207,245)" text-rendering="geometricPrecision" image-rendering="optimizeQuality" font-family="sans-serif" stroke="rgb(122,207,245)" stroke-opacity="1"
    ><rect x="0" width="82" height="35" y="0" clip-path="url(#clipPath10)" stroke="none"
    /></g
    ><g stroke-linecap="butt" font-size="11px" transform="translate(724,2)" fill-opacity="1" fill="black" text-rendering="geometricPrecision" image-rendering="optimizeQuality" font-family="sans-serif" stroke-linejoin="round" stroke="black" stroke-opacity="1" stroke-miterlimit="0"
    ><rect fill="none" x="0" width="82" height="35" y="0" clip-path="url(#clipPath10)"
      /><line clip-path="url(#clipPath10)" fill="none" x1="41" x2="41" y1="35" y2="769" stroke-linejoin="bevel" stroke-dasharray="8,3"
    /></g
    ><g font-size="11px" transform="translate(844,2)" fill-opacity="1" fill="rgb(122,207,245)" text-rendering="geometricPrecision" image-rendering="optimizeQuality" font-family="sans-serif" stroke="rgb(122,207,245)" stroke-opacity="1"
    ><rect x="0" width="80" height="35" y="0" clip-path="url(#clipPath11)" stroke="none"
    /></g
    ><g stroke-linecap="butt" font-size="11px" transform="translate(844,2)" fill-opacity="1" fill="black" text-rendering="geometricPrecision" image-rendering="optimizeQuality" font-family="sans-serif" stroke-linejoin="round" stroke="black" stroke-opacity="1" stroke-miterlimit="0"
    ><rect fill="none" x="0" width="80" height="35" y="0" clip-path="url(#clipPath11)"
      /><line clip-path="url(#clipPath11)" fill="none" x1="40" x2="40" y1="35" y2="769" stroke-linejoin="bevel" stroke-dasharray="8,3"
    /></g
    ><g font-size="11px" transform="translate(636,206)" fill-opacity="1" fill="rgb(122,207,245)" text-rendering="geometricPrecision" image-rendering="optimizeQuality" font-family="sans-serif" stroke="rgb(122,207,245)" stroke-opacity="1"
    ><rect x="0" width="8" height="287" y="0" clip-path="url(#clipPath12)" stroke="none"
    /></g
    ><g stroke-linecap="butt" font-size="11px" transform="translate(636,206)" fill-opacity="1" fill="black" text-rendering="geometricPrecision" image-rendering="optimizeQuality" font-family="sans-serif" stroke-linejoin="round" stroke="black" stroke-opacity="1" stroke-miterlimit="0"
    ><rect fill="none" x="0" width="8" height="287" y="0" clip-path="url(#clipPath12)"
    /></g
    ><g font-size="11px" transform="translate(761,219)" fill-opacity="1" fill="rgb(122,207,245)" text-rendering="geometricPrecision" image-rendering="optimizeQuality" font-family="sans-serif" stroke="rgb(122,207,245)" stroke-opacity="1"
    ><rect x="0" width="8" height="12" y="0" clip-path="url(#clipPath7)" stroke="none"
    /></g
    ><g stroke-linecap="butt" font-size="11px" transform="translate(761,219)" fill-opacity="1" fill="black" text-rendering="geometricPrecision" image-rendering="optimizeQuality" font-family="sans-serif" stroke-linejoin="round" stroke="black" stroke-opacity="1" stroke-miterlimit="0"
    ><rect fill="none" x="0" width="8" height="12" y="0" clip-path="url(#clipPath7)"
    /></g
    ><g font-size="11px" transform="translate(880,255)" fill-opacity="1" fill="rgb(122,207,245)" text-rendering="geometricPrecision" image-rendering="optimizeQuality" font-family="sans-serif" stroke="rgb(122,207,245)" stroke-opacity="1"
    ><rect x="0" width="8" height="12" y="0" clip-path="url(#clipPath7)" stroke="none"
    /></g
    ><g stroke-linecap="butt" font-size="11px" transform="translate(880,255)" fill-opacity="1" fill="black" text-rendering="geometricPrecision" image-rendering="optimizeQuality" font-family="sans-serif" stroke-linejoin="round" stroke="black" stroke-opacity="1" stroke-miterlimit="0"
    ><rect fill="none" x="0" width="8" height="12" y="0" clip-path="url(#clipPath7)"
    /></g
    ><g font-size="11px" transform="translate(1352,2)" fill-opacity="1" fill="rgb(122,207,245)" text-rendering="geometricPrecision" image-rendering="optimizeQuality" font-family="sans-serif" stroke="rgb(122,207,245)" stroke-opacity="1"
    ><rect x="0" width="107" height="35" y="0" clip-path="url(#clipPath1)" stroke="none"
    /></g
    ><g stroke-linecap="butt" font-size="11px" transform="translate(1352,2)" fill-opacity="1" fill="black" text-rendering="geometricPrecision" image-rendering="optimizeQuality" font-family="sans-serif" stroke-linejoin="round" stroke="black" stroke-opacity="1" stroke-miterlimit="0"
    ><rect fill="none" x="0" width="107" height="35" y="0" clip-path="url(#clipPath1)"
      /><line clip-path="url(#clipPath1)" fill="none" x1="53" x2="53" y1="35" y2="769" stroke-linejoin="bevel" stroke-dasharray="8,3"
    /></g
    ><g font-size="11px" transform="translate(1468,2)" fill-opacity="1" fill="rgb(122,207,245)" text-rendering="geometricPrecision" image-rendering="optimizeQuality" font-family="sans-serif" stroke="rgb(122,207,245)" stroke-opacity="1"
    ><rect x="0" width="95" height="35" y="0" clip-path="url(#clipPath13)" stroke="none"
    /></g
    ><g stroke-linecap="butt" font-size="11px" transform="translate(1468,2)" fill-opacity="1" fill="black" text-rendering="geometricPrecision" image-rendering="optimizeQuality" font-family="sans-serif" stroke-linejoin="round" stroke="black" stroke-opacity="1" stroke-miterlimit="0"
    ><rect fill="none" x="0" width="95" height="35" y="0" clip-path="url(#clipPath13)"
      /><line clip-path="url(#clipPath13)" fill="none" x1="47" x2="47" y1="35" y2="769" stroke-linejoin="bevel" stroke-dasharray="8,3"
    /></g
    ><g font-size="11px" transform="translate(1402,416)" fill-opacity="1" fill="rgb(122,207,245)" text-rendering="geometricPrecision" image-rendering="optimizeQuality" font-family="sans-serif" stroke="rgb(122,207,245)" stroke-opacity="1"
    ><rect x="0" width="8" height="12" y="0" clip-path="url(#clipPath7)" stroke="none"
    /></g
    ><g stroke-linecap="butt" font-size="11px" transform="translate(1402,416)" fill-opacity="1" fill="black" text-rendering="geometricPrecision" image-rendering="optimizeQuality" font-family="sans-serif" stroke-linejoin="round" stroke="black" stroke-opacity="1" stroke-miterlimit="0"
    ><rect fill="none" x="0" width="8" height="12" y="0" clip-path="url(#clipPath7)"
    /></g
    ><g font-size="11px" transform="translate(1511,460)" fill-opacity="1" fill="rgb(122,207,245)" text-rendering="geometricPrecision" image-rendering="optimizeQuality" font-family="sans-serif" stroke="rgb(122,207,245)" stroke-opacity="1"
    ><rect x="0" width="8" height="95" y="0" clip-path="url(#clipPath14)" stroke="none"
    /></g
    ><g stroke-linecap="butt" font-size="11px" transform="translate(1511,460)" fill-opacity="1" fill="black" text-rendering="geometricPrecision" image-rendering="optimizeQuality" font-family="sans-serif" stroke-linejoin="round" stroke="black" stroke-opacity="1" stroke-miterlimit="0"
    ><rect fill="none" x="0" width="8" height="95" y="0" clip-path="url(#clipPath14)"
    /></g
    ><g font-size="11px" transform="translate(1798,452)" fill-opacity="1" fill="rgb(122,207,245)" text-rendering="geometricPrecision" image-rendering="optimizeQuality" font-family="sans-serif" stroke="rgb(122,207,245)" stroke-opacity="1"
    ><rect x="0" width="69" height="35" y="0" clip-path="url(#clipPath15)" stroke="none"
    /></g
    ><g stroke-linecap="butt" font-size="11px" transform="translate(1798,452)" fill-opacity="1" fill="black" text-rendering="geometricPrecision" image-rendering="optimizeQuality" font-family="sans-serif" stroke-linejoin="round" stroke="black" stroke-opacity="1" stroke-miterlimit="0"
    ><rect fill="none" x="0" width="69" height="35" y="0" clip-path="url(#clipPath15)"
      /><line clip-path="url(#clipPath15)" fill="none" x1="34" x2="34" y1="35" y2="319" stroke-linejoin="bevel" stroke-dasharray="8,3"
    /></g
    ><g font-size="11px" transform="translate(338,585)" fill-opacity="1" fill="rgb(122,207,245)" text-rendering="geometricPrecision" image-rendering="optimizeQuality" font-family="sans-serif" stroke="rgb(122,207,245)" stroke-opacity="1"
    ><rect x="0" width="8" height="161" y="0" clip-path="url(#clipPath16)" stroke="none"
    /></g
    ><g stroke-linecap="butt" font-size="11px" transform="translate(338,585)" fill-opacity="1" fill="black" text-rendering="geometricPrecision" image-rendering="optimizeQuality" font-family="sans-serif" stroke-linejoin="round" stroke="black" stroke-opacity="1" stroke-miterlimit="0"
    ><rect fill="none" x="0" width="8" height="161" y="0" clip-path="url(#clipPath16)"
    /></g
    ><g font-size="11px" transform="translate(637,608)" fill-opacity="1" fill="rgb(122,207,245)" text-rendering="geometricPrecision" image-rendering="optimizeQuality" font-family="sans-serif" stroke="rgb(122,207,245)" stroke-opacity="1"
    ><rect x="0" width="8" height="58" y="0" clip-path="url(#clipPath17)" stroke="none"
    /></g
    ><g stroke-linecap="butt" font-size="11px" transform="translate(637,608)" fill-opacity="1" fill="black" text-rendering="geometricPrecision" image-rendering="optimizeQuality" font-family="sans-serif" stroke-linejoin="round" stroke="black" stroke-opacity="1" stroke-miterlimit="0"
    ><rect fill="none" x="0" width="8" height="58" y="0" clip-path="url(#clipPath17)"
    /></g
    ><g font-size="11px" transform="translate(1513,642)" fill-opacity="1" fill="rgb(122,207,245)" text-rendering="geometricPrecision" image-rendering="optimizeQuality" font-family="sans-serif" stroke="rgb(122,207,245)" stroke-opacity="1"
    ><rect x="0" width="8" height="97" y="0" clip-path="url(#clipPath18)" stroke="none"
    /></g
    ><g stroke-linecap="butt" font-size="11px" transform="translate(1513,642)" fill-opacity="1" fill="black" text-rendering="geometricPrecision" image-rendering="optimizeQuality" font-family="sans-serif" stroke-linejoin="round" stroke="black" stroke-opacity="1" stroke-miterlimit="0"
    ><rect fill="none" x="0" width="8" height="97" y="0" clip-path="url(#clipPath18)"
    /></g
    ><g font-size="11px" transform="translate(1798,452)" fill-opacity="1" fill="black" text-rendering="geometricPrecision" image-rendering="optimizeQuality" font-family="sans-serif" stroke="black" stroke-opacity="1"
    ><text x="17" xml:space="preserve" y="12" clip-path="url(#clipPath19)" stroke="none"
      >tarefa :</text
      ><text x="18" xml:space="preserve" y="27" clip-path="url(#clipPath19)" stroke="none"
      >Tarefa</text
    ></g
    ><g font-size="11px" transform="translate(1468,2)" fill-opacity="1" fill="black" text-rendering="geometricPrecision" image-rendering="optimizeQuality" font-family="sans-serif" stroke="black" stroke-opacity="1"
    ><text x="9" xml:space="preserve" y="12" clip-path="url(#clipPath20)" stroke="none"
      >lt : ListaTarefas</text
    ></g
    ><g font-size="11px" transform="translate(1352,2)" fill-opacity="1" fill="black" text-rendering="geometricPrecision" image-rendering="optimizeQuality" font-family="sans-serif" stroke="black" stroke-opacity="1"
    ><text x="9" xml:space="preserve" y="12" clip-path="url(#clipPath21)" stroke="none"
      >org : Organizacao</text
    ></g
    ><g font-size="11px" transform="translate(844,2)" fill-opacity="1" fill="black" text-rendering="geometricPrecision" image-rendering="optimizeQuality" font-family="sans-serif" stroke="black" stroke-opacity="1"
    ><text x="27" xml:space="preserve" y="12" clip-path="url(#clipPath22)" stroke="none"
      >app :</text
      ><text x="4" xml:space="preserve" y="27" clip-path="url(#clipPath22)" stroke="none"
      >AplicacaoPOT</text
    ></g
    ><g font-size="11px" transform="translate(724,2)" fill-opacity="1" fill="black" text-rendering="geometricPrecision" image-rendering="optimizeQuality" font-family="sans-serif" stroke="black" stroke-opacity="1"
    ><text x="39" xml:space="preserve" y="12" clip-path="url(#clipPath23)" stroke="none"
      >:</text
      ><text x="5" xml:space="preserve" y="27" clip-path="url(#clipPath23)" stroke="none"
      >AplicacaoPOT</text
    ></g
    ><g font-size="11px" transform="translate(1217,2)" fill-opacity="1" fill="black" text-rendering="geometricPrecision" image-rendering="optimizeQuality" font-family="sans-serif" stroke="black" stroke-opacity="1"
    ><text x="41" xml:space="preserve" y="12" clip-path="url(#clipPath24)" stroke="none"
      >rorgs :</text
      ><text x="4" xml:space="preserve" y="27" clip-path="url(#clipPath24)" stroke="none"
      >RegistoOrganizacoes</text
    ></g
    ><g font-size="11px" transform="translate(1128,2)" fill-opacity="1" fill="black" text-rendering="geometricPrecision" image-rendering="optimizeQuality" font-family="sans-serif" stroke="black" stroke-opacity="1"
    ><text x="32" xml:space="preserve" y="12" clip-path="url(#clipPath19)" stroke="none"
      >:</text
      ><text x="7" xml:space="preserve" y="27" clip-path="url(#clipPath19)" stroke="none"
      >Plataforma</text
    ></g
    ><g font-size="11px" transform="translate(971,2)" fill-opacity="1" fill="black" text-rendering="geometricPrecision" image-rendering="optimizeQuality" font-family="sans-serif" stroke="black" stroke-opacity="1"
    ><text x="27" xml:space="preserve" y="12" clip-path="url(#clipPath25)" stroke="none"
      >sessao :</text
      ><text x="6" xml:space="preserve" y="27" clip-path="url(#clipPath25)" stroke="none"
      >SessaoUtilizador</text
    ></g
    ><g font-size="11px" transform="translate(574,2)" fill-opacity="1" fill="black" text-rendering="geometricPrecision" image-rendering="optimizeQuality" font-family="sans-serif" stroke="black" stroke-opacity="1"
    ><text x="11" xml:space="preserve" y="12" clip-path="url(#clipPath26)" stroke="none"
      >: CriarTarefaController</text
    ></g
    ><g font-size="11px" transform="translate(2,37)" fill-opacity="1" fill="black" text-rendering="geometricPrecision" image-rendering="optimizeQuality" font-family="sans-serif" stroke="black" stroke-opacity="1"
    ><text x="10" xml:space="preserve" y="12" clip-path="url(#clipPath27)" stroke="none"
      >Colaboradorr</text
    ></g
    ><g font-size="11px" transform="translate(288,2)" fill-opacity="1" fill="black" text-rendering="geometricPrecision" image-rendering="optimizeQuality" font-family="sans-serif" stroke="black" stroke-opacity="1"
    ><text x="17" xml:space="preserve" y="12" clip-path="url(#clipPath21)" stroke="none"
      >: CriarTarefaUI</text
    ></g
    ><g stroke-linecap="butt" font-size="11px" transform="translate(-2,34)" fill-opacity="1" fill="black" text-rendering="geometricPrecision" image-rendering="optimizeQuality" font-family="sans-serif" stroke-linejoin="round" stroke="black" stroke-opacity="1"
    ><line y2="50" fill="none" x1="50" clip-path="url(#clipPath29)" x2="340" y1="50"
      /><polygon points=" 340 50 328 44 328 56" clip-path="url(#clipPath29)" stroke="none"
      /><polygon fill="none" points=" 340 50 328 44 328 56" clip-path="url(#clipPath29)"
    /></g
    ><g fill-opacity="1" text-rendering="geometricPrecision" stroke="black" stroke-linecap="butt" transform="translate(-2,96)" stroke-miterlimit="0" stroke-opacity="1" fill="black" stroke-dasharray="8,3" font-family="sans-serif" stroke-linejoin="round" font-size="11px" image-rendering="optimizeQuality"
    ><line y2="50" fill="none" x1="340" clip-path="url(#clipPath30)" x2="50" y1="50"
      /><line clip-path="url(#clipPath30)" fill="none" x1="50" x2="62" y1="50" y2="56" stroke-dasharray="none" stroke-miterlimit="10"
      /><line clip-path="url(#clipPath30)" fill="none" x1="50" x2="62" y1="50" y2="44" stroke-dasharray="none" stroke-miterlimit="10"
    /></g
    ><g stroke-linecap="butt" font-size="11px" transform="translate(-2,141)" fill-opacity="1" fill="black" text-rendering="geometricPrecision" image-rendering="optimizeQuality" font-family="sans-serif" stroke-linejoin="round" stroke="black" stroke-opacity="1"
    ><line y2="50" fill="none" x1="50" clip-path="url(#clipPath31)" x2="340" y1="50"
      /><polygon points=" 340 50 328 44 328 56" clip-path="url(#clipPath31)" stroke="none"
      /><polygon fill="none" points=" 340 50 328 44 328 56" clip-path="url(#clipPath31)"
    /></g
    ><g fill-opacity="1" text-rendering="geometricPrecision" stroke="black" stroke-linecap="butt" transform="translate(-7,491)" stroke-miterlimit="0" stroke-opacity="1" fill="black" stroke-dasharray="8,3" font-family="sans-serif" stroke-linejoin="round" font-size="11px" image-rendering="optimizeQuality"
    ><line y2="56" fill="none" x1="346" clip-path="url(#clipPath33)" x2="56" y1="56"
      /><line clip-path="url(#clipPath33)" fill="none" x1="56" x2="68" y1="56" y2="62" stroke-dasharray="none" stroke-miterlimit="10"
      /><line clip-path="url(#clipPath33)" fill="none" x1="56" x2="68" y1="56" y2="50" stroke-dasharray="none" stroke-miterlimit="10"
    /></g
    ><g stroke-linecap="butt" font-size="11px" transform="translate(-7,530)" fill-opacity="1" fill="black" text-rendering="geometricPrecision" image-rendering="optimizeQuality" font-family="sans-serif" stroke-linejoin="round" stroke="black" stroke-opacity="1"
    ><line y2="56" fill="none" x1="56" clip-path="url(#clipPath34)" x2="346" y1="56"
      /><polygon points=" 346 56 334 50 334 62" clip-path="url(#clipPath34)" stroke="none"
      /><polygon fill="none" points=" 346 56 334 50 334 62" clip-path="url(#clipPath34)"
    /></g
    ><g fill-opacity="1" text-rendering="geometricPrecision" stroke="black" stroke-linecap="butt" transform="translate(-7,680)" stroke-miterlimit="0" stroke-opacity="1" fill="black" stroke-dasharray="8,3" font-family="sans-serif" stroke-linejoin="round" font-size="11px" image-rendering="optimizeQuality"
    ><line y2="56" fill="none" x1="346" clip-path="url(#clipPath35)" x2="56" y1="56"
      /><line clip-path="url(#clipPath35)" fill="none" x1="56" x2="68" y1="56" y2="62" stroke-dasharray="none" stroke-miterlimit="10"
      /><line clip-path="url(#clipPath35)" fill="none" x1="56" x2="68" y1="56" y2="50" stroke-dasharray="none" stroke-miterlimit="10"
    /></g
    ><g stroke-linecap="butt" font-size="11px" transform="translate(296,156)" fill-opacity="1" fill="black" text-rendering="geometricPrecision" image-rendering="optimizeQuality" font-family="sans-serif" stroke-linejoin="round" stroke="black" stroke-opacity="1"
    ><line y2="50" fill="none" x1="50" clip-path="url(#clipPath36)" x2="340" y1="50"
      /><polygon points=" 340 50 328 44 328 56" clip-path="url(#clipPath36)" stroke="none"
      /><polygon fill="none" points=" 340 50 328 44 328 56" clip-path="url(#clipPath36)"
    /></g
    ><g stroke-linecap="butt" font-size="11px" transform="translate(594,242)" fill-opacity="1" fill="black" text-rendering="geometricPrecision" image-rendering="optimizeQuality" font-family="sans-serif" stroke-linejoin="round" stroke="black" stroke-opacity="1"
    ><line y2="50" fill="none" x1="50" clip-path="url(#clipPath38)" x2="420" y1="50"
      /><polygon points=" 420 50 408 44 408 56" clip-path="url(#clipPath38)" stroke="none"
      /><polygon fill="none" points=" 420 50 408 44 408 56" clip-path="url(#clipPath38)"
    /></g
    ><g stroke-linecap="butt" font-size="11px" transform="translate(594,285)" fill-opacity="1" fill="black" text-rendering="geometricPrecision" image-rendering="optimizeQuality" font-family="sans-serif" stroke-linejoin="round" stroke="black" stroke-opacity="1"
    ><line y2="50" fill="none" x1="50" clip-path="url(#clipPath40)" x2="565" y1="50"
      /><polygon points=" 565 50 553 44 553 56" clip-path="url(#clipPath40)" stroke="none"
      /><polygon fill="none" points=" 565 50 553 44 553 56" clip-path="url(#clipPath40)"
    /></g
    ><g stroke-linecap="butt" font-size="11px" transform="translate(594,330)" fill-opacity="1" fill="black" text-rendering="geometricPrecision" image-rendering="optimizeQuality" font-family="sans-serif" stroke-linejoin="round" stroke="black" stroke-opacity="1"
    ><line y2="50" fill="none" x1="50" clip-path="url(#clipPath42)" x2="677" y1="50"
      /><polygon points=" 677 50 665 44 665 56" clip-path="url(#clipPath42)" stroke="none"
      /><polygon fill="none" points=" 677 50 665 44 665 56" clip-path="url(#clipPath42)"
    /></g
    ><g stroke-linecap="butt" font-size="11px" transform="translate(594,169)" fill-opacity="1" fill="black" text-rendering="geometricPrecision" image-rendering="optimizeQuality" font-family="sans-serif" stroke-linejoin="round" stroke="black" stroke-opacity="1"
    ><line y2="50" fill="none" x1="50" clip-path="url(#clipPath44)" x2="167" y1="50"
      /><polygon points=" 167 50 155 44 155 56" clip-path="url(#clipPath44)" stroke="none"
      /><polygon fill="none" points=" 167 50 155 44 155 56" clip-path="url(#clipPath44)"
    /></g
    ><g stroke-linecap="butt" font-size="11px" transform="translate(594,205)" fill-opacity="1" fill="black" text-rendering="geometricPrecision" image-rendering="optimizeQuality" font-family="sans-serif" stroke-linejoin="round" stroke="black" stroke-opacity="1"
    ><line y2="50" fill="none" x1="50" clip-path="url(#clipPath46)" x2="286" y1="50"
      /><polygon points=" 286 50 274 44 274 56" clip-path="url(#clipPath46)" stroke="none"
      /><polygon fill="none" points=" 286 50 274 44 274 56" clip-path="url(#clipPath46)"
    /></g
    ><g stroke-linecap="butt" font-size="11px" transform="translate(594,366)" fill-opacity="1" fill="black" text-rendering="geometricPrecision" image-rendering="optimizeQuality" font-family="sans-serif" stroke-linejoin="round" stroke="black" stroke-opacity="1"
    ><line y2="50" fill="none" x1="50" clip-path="url(#clipPath48)" x2="808" y1="50"
      /><polygon points=" 808 50 796 44 796 56" clip-path="url(#clipPath48)" stroke="none"
      /><polygon fill="none" points=" 808 50 796 44 796 56" clip-path="url(#clipPath48)"
    /></g
    ><g stroke-linecap="butt" font-size="11px" transform="translate(588,404)" fill-opacity="1" fill="black" text-rendering="geometricPrecision" image-rendering="optimizeQuality" font-family="sans-serif" stroke-linejoin="round" stroke="black" stroke-opacity="1"
    ><line y2="56" fill="none" x1="56" clip-path="url(#clipPath50)" x2="923" y1="56"
      /><polygon points=" 923 56 911 50 911 62" clip-path="url(#clipPath50)" stroke="none"
      /><polygon fill="none" points=" 923 56 911 50 911 62" clip-path="url(#clipPath50)"
    /></g
    ><g fill-opacity="1" text-rendering="geometricPrecision" stroke="black" stroke-linecap="butt" transform="translate(1464,413)" stroke-opacity="1" fill="black" stroke-dasharray="5" font-family="sans-serif" stroke-linejoin="round" font-size="11px" stroke-dashoffset="1" image-rendering="optimizeQuality"
    ><line y2="56" fill="none" x1="56" clip-path="url(#clipPath52)" x2="334" y1="56"
      /><line clip-path="url(#clipPath52)" stroke-dashoffset="0" fill="none" x1="334" x2="322" y1="56" y2="50" stroke-dasharray="none"
      /><line clip-path="url(#clipPath52)" stroke-dashoffset="0" fill="none" x1="334" x2="322" y1="56" y2="62" stroke-dasharray="none"
    /></g
    ><g stroke-linecap="butt" font-size="11px" transform="translate(1464,452)" fill-opacity="1" fill="black" text-rendering="geometricPrecision" image-rendering="optimizeQuality" font-family="sans-serif" stroke-linejoin="round" stroke="black" stroke-opacity="1"
    ><line y2="56" fill="none" x1="56" clip-path="url(#clipPath54)" x2="87" y1="56"
      /><line y2="76" fill="none" x1="87" clip-path="url(#clipPath54)" x2="87" y1="56"
      /><line y2="76" fill="none" x1="87" clip-path="url(#clipPath54)" x2="56" y1="76"
      /><polygon points=" 56 76 68 82 68 70" clip-path="url(#clipPath54)" stroke="none"
      /><polygon fill="none" points=" 56 76 68 82 68 70" clip-path="url(#clipPath54)"
    /></g
    ><g stroke-linecap="butt" font-size="11px" transform="translate(290,552)" fill-opacity="1" fill="black" text-rendering="geometricPrecision" image-rendering="optimizeQuality" font-family="sans-serif" stroke-linejoin="round" stroke="black" stroke-opacity="1"
    ><line y2="56" fill="none" x1="56" clip-path="url(#clipPath56)" x2="347" y1="56"
      /><polygon points=" 347 56 335 50 335 62" clip-path="url(#clipPath56)" stroke="none"
      /><polygon fill="none" points=" 347 56 335 50 335 62" clip-path="url(#clipPath56)"
    /></g
    ><g stroke-linecap="butt" font-size="11px" transform="translate(589,586)" fill-opacity="1" fill="black" text-rendering="geometricPrecision" image-rendering="optimizeQuality" font-family="sans-serif" stroke-linejoin="round" stroke="black" stroke-opacity="1"
    ><line y2="56" fill="none" x1="56" clip-path="url(#clipPath57)" x2="923" y1="56"
      /><polygon points=" 923 56 911 50 911 62" clip-path="url(#clipPath57)" stroke="none"
      /><polygon fill="none" points=" 923 56 911 50 911 62" clip-path="url(#clipPath57)"
    /></g
    ><g stroke-linecap="butt" font-size="11px" transform="translate(1465,604)" fill-opacity="1" fill="black" text-rendering="geometricPrecision" image-rendering="optimizeQuality" font-family="sans-serif" stroke-linejoin="round" stroke="black" stroke-opacity="1"
    ><line y2="56" fill="none" x1="56" clip-path="url(#clipPath59)" x2="86" y1="56"
      /><line y2="76" fill="none" x1="86" clip-path="url(#clipPath59)" x2="86" y1="56"
      /><line y2="76" fill="none" x1="86" clip-path="url(#clipPath59)" x2="56" y1="76"
      /><polygon points=" 56 76 68 82 68 70" clip-path="url(#clipPath59)" stroke="none"
      /><polygon fill="none" points=" 56 76 68 82 68 70" clip-path="url(#clipPath59)"
    /></g
    ><g stroke-linecap="butt" font-size="11px" transform="translate(1465,651)" fill-opacity="1" fill="black" text-rendering="geometricPrecision" image-rendering="optimizeQuality" font-family="sans-serif" stroke-linejoin="round" stroke="black" stroke-opacity="1"
    ><line y2="56" fill="none" x1="56" clip-path="url(#clipPath60)" x2="86" y1="56"
      /><line y2="76" fill="none" x1="86" clip-path="url(#clipPath60)" x2="86" y1="56"
      /><line y2="76" fill="none" x1="86" clip-path="url(#clipPath60)" x2="56" y1="76"
      /><polygon points=" 56 76 68 82 68 70" clip-path="url(#clipPath60)" stroke="none"
      /><polygon fill="none" points=" 56 76 68 82 68 70" clip-path="url(#clipPath60)"
    /></g
    ><g font-size="11px" transform="translate(1550,706)" fill-opacity="1" fill="white" text-rendering="geometricPrecision" image-rendering="optimizeQuality" font-family="sans-serif" stroke="white" stroke-opacity="1"
    ><rect x="0" width="146" height="16" y="0" clip-path="url(#clipPath61)" stroke="none"
      /><text fill="black" x="9" xml:space="preserve" y="12" clip-path="url(#clipPath61)" stroke="none"
      >3.1.1.2: addTarefa(tarefa)</text
    ></g
    ><g font-size="11px" transform="translate(1550,660)" fill-opacity="1" fill="white" text-rendering="geometricPrecision" image-rendering="optimizeQuality" font-family="sans-serif" stroke="white" stroke-opacity="1"
    ><rect x="0" width="156" height="15" y="0" clip-path="url(#clipPath62)" stroke="none"
      /><text fill="black" x="10" xml:space="preserve" y="12" clip-path="url(#clipPath62)" stroke="none"
      >3.1.1.1: validaTarefa(tarefa)</text
    ></g
    ><g font-size="11px" transform="translate(1003,621)" fill-opacity="1" fill="white" text-rendering="geometricPrecision" image-rendering="optimizeQuality" font-family="sans-serif" stroke="white" stroke-opacity="1"
    ><rect x="0" width="151" height="15" y="0" clip-path="url(#clipPath63)" stroke="none"
      /><text fill="black" x="10" xml:space="preserve" y="12" clip-path="url(#clipPath63)" stroke="none"
      >3.1.1: registaTarefa(tarefa)</text
    ></g
    ><g font-size="11px" transform="translate(434,586)" fill-opacity="1" fill="white" text-rendering="geometricPrecision" image-rendering="optimizeQuality" font-family="sans-serif" stroke="white" stroke-opacity="1"
    ><rect x="0" width="114" height="16" y="0" clip-path="url(#clipPath64)" stroke="none"
      /><text fill="black" x="10" xml:space="preserve" y="12" clip-path="url(#clipPath64)" stroke="none"
      >3.1: registaTarefa()</text
    ></g
    ><g font-size="11px" transform="translate(1550,508)" fill-opacity="1" fill="white" text-rendering="geometricPrecision" image-rendering="optimizeQuality" font-family="sans-serif" stroke="white" stroke-opacity="1"
    ><rect x="0" width="156" height="14" y="0" clip-path="url(#clipPath65)" stroke="none"
      /><text fill="black" x="10" xml:space="preserve" y="12" clip-path="url(#clipPath65)" stroke="none"
      >2.1.7.2: validaTarefa(tarefa)</text
    ></g
    ><g font-size="11px" transform="translate(1540,448)" fill-opacity="1" fill="white" text-rendering="geometricPrecision" image-rendering="optimizeQuality" font-family="sans-serif" stroke="white" stroke-opacity="1"
    ><rect x="0" width="235" height="15" y="0" clip-path="url(#clipPath66)" stroke="none"
      /><text fill="black" x="10" xml:space="preserve" y="12" clip-path="url(#clipPath66)" stroke="none"
      >2.1.7.1: create(ID, desig, duracao, custo, ct)</text
    ></g
    ><g font-size="11px" transform="translate(929,438)" fill-opacity="1" fill="white" text-rendering="geometricPrecision" image-rendering="optimizeQuality" font-family="sans-serif" stroke="white" stroke-opacity="1"
    ><rect x="0" width="291" height="15" y="0" clip-path="url(#clipPath67)" stroke="none"
      /><text fill="black" x="10" xml:space="preserve" y="12" clip-path="url(#clipPath67)" stroke="none"
      >2.1.7: tarefa = novaTarefa(ID, desig, duracao, custo, ct)</text
    ></g
    ><g font-size="11px" transform="translate(947,396)" fill-opacity="1" fill="white" text-rendering="geometricPrecision" image-rendering="optimizeQuality" font-family="sans-serif" stroke="white" stroke-opacity="1"
    ><rect x="0" width="152" height="15" y="0" clip-path="url(#clipPath68)" stroke="none"
      /><text fill="black" x="10" xml:space="preserve" y="12" clip-path="url(#clipPath68)" stroke="none"
      >2.1.6: lt = getListaTarefas()</text
    ></g
    ><g font-size="11px" transform="translate(673,235)" fill-opacity="1" fill="white" text-rendering="geometricPrecision" image-rendering="optimizeQuality" font-family="sans-serif" stroke="white" stroke-opacity="1"
    ><rect x="0" width="177" height="15" y="0" clip-path="url(#clipPath69)" stroke="none"
      /><text fill="black" x="9" xml:space="preserve" y="12" clip-path="url(#clipPath69)" stroke="none"
      >2.1.2: sessao=getSessaoAtual()</text
    ></g
    ><g font-size="11px" transform="translate(632,199)" fill-opacity="1" fill="white" text-rendering="geometricPrecision" image-rendering="optimizeQuality" font-family="sans-serif" stroke="white" stroke-opacity="1"
    ><rect x="0" width="140" height="15" y="0" clip-path="url(#clipPath70)" stroke="none"
      /><text fill="black" x="10" xml:space="preserve" y="12" clip-path="url(#clipPath70)" stroke="none"
      >2.1.1: app=getInstance()</text
    ></g
    ><g font-size="11px" transform="translate(817,360)" fill-opacity="1" fill="white" text-rendering="geometricPrecision" image-rendering="optimizeQuality" font-family="sans-serif" stroke="white" stroke-opacity="1"
    ><rect x="0" width="280" height="15" y="0" clip-path="url(#clipPath71)" stroke="none"
      /><text fill="black" x="10" xml:space="preserve" y="12" clip-path="url(#clipPath71)" stroke="none"
      >2.1.5: org  = getOrganizacaoByEmailUtilizador(email)</text
    ></g
    ><g font-size="11px" transform="translate(796,315)" fill-opacity="1" fill="white" text-rendering="geometricPrecision" image-rendering="optimizeQuality" font-family="sans-serif" stroke="white" stroke-opacity="1"
    ><rect x="0" width="209" height="15" y="0" clip-path="url(#clipPath72)" stroke="none"
      /><text fill="black" x="10" xml:space="preserve" y="12" clip-path="url(#clipPath72)" stroke="none"
      >2.1.4: rorgs = getRegistoOrganizacoes</text
    ></g
    ><g font-size="11px" transform="translate(744,272)" fill-opacity="1" fill="white" text-rendering="geometricPrecision" image-rendering="optimizeQuality" font-family="sans-serif" stroke="white" stroke-opacity="1"
    ><rect x="0" width="174" height="15" y="0" clip-path="url(#clipPath73)" stroke="none"
      /><text fill="black" x="10" xml:space="preserve" y="12" clip-path="url(#clipPath73)" stroke="none"
      >2.1.3: email = getSessaoAtual()</text
    ></g
    ><g font-size="11px" transform="translate(370,186)" fill-opacity="1" fill="white" text-rendering="geometricPrecision" image-rendering="optimizeQuality" font-family="sans-serif" stroke="white" stroke-opacity="1"
    ><rect x="0" width="241" height="15" y="0" clip-path="url(#clipPath74)" stroke="none"
      /><text fill="black" x="10" xml:space="preserve" y="12" clip-path="url(#clipPath74)" stroke="none"
      >2.1: novaTarefa(ID, desig, duracao, custo, ct)</text
    ></g
    ><g font-size="11px" transform="translate(93,714)" fill-opacity="1" fill="white" text-rendering="geometricPrecision" image-rendering="optimizeQuality" font-family="sans-serif" stroke="white" stroke-opacity="1"
    ><rect x="0" width="202" height="16" y="0" clip-path="url(#clipPath75)" stroke="none"
      /><text fill="black" x="10" xml:space="preserve" y="12" clip-path="url(#clipPath75)" stroke="none"
      >3.2: Informa do sucesso da operação</text
    ></g
    ><g font-size="11px" transform="translate(129,564)" fill-opacity="1" fill="white" text-rendering="geometricPrecision" image-rendering="optimizeQuality" font-family="sans-serif" stroke="white" stroke-opacity="1"
    ><rect x="0" width="125" height="16" y="0" clip-path="url(#clipPath76)" stroke="none"
      /><text fill="black" x="10" xml:space="preserve" y="12" clip-path="url(#clipPath76)" stroke="none"
      >3: Confirma os dados</text
    ></g
    ><g font-size="11px" transform="translate(68,525)" fill-opacity="1" fill="white" text-rendering="geometricPrecision" image-rendering="optimizeQuality" font-family="sans-serif" stroke="white" stroke-opacity="1"
    ><rect x="0" width="249" height="16" y="0" clip-path="url(#clipPath77)" stroke="none"
      /><text fill="black" x="9" xml:space="preserve" y="12" clip-path="url(#clipPath77)" stroke="none"
      >2.2: Apresenta os dados e solicita confirmação</text
    ></g
    ><g font-size="11px" transform="translate(103,171)" fill-opacity="1" fill="white" text-rendering="geometricPrecision" image-rendering="optimizeQuality" font-family="sans-serif" stroke="white" stroke-opacity="1"
    ><rect x="0" width="175" height="15" y="0" clip-path="url(#clipPath78)" stroke="none"
      /><text fill="black" x="9" xml:space="preserve" y="12" clip-path="url(#clipPath78)" stroke="none"
      >2: Introduz os dados solicitados</text
    ></g
    ><g font-size="11px" transform="translate(69,95)" fill-opacity="1" fill="white" text-rendering="geometricPrecision" image-rendering="optimizeQuality" font-family="sans-serif" stroke="white" stroke-opacity="1"
    ><rect x="0" width="245" height="48" y="0" clip-path="url(#clipPath79)" stroke="none"
      /><text fill="black" x="20" xml:space="preserve" y="21" clip-path="url(#clipPath79)" stroke="none"
      >1.1: Solicita dados (ID, designação breve,</text
      ><text fill="black" x="8" xml:space="preserve" y="36" clip-path="url(#clipPath79)" stroke="none"
      >estimativa duração, custo, categoria de tarefa)</text
    ></g
    ><g font-size="11px" transform="translate(103,64)" fill-opacity="1" fill="white" text-rendering="geometricPrecision" image-rendering="optimizeQuality" font-family="sans-serif" stroke="white" stroke-opacity="1"
    ><rect x="0" width="177" height="15" y="0" clip-path="url(#clipPath69)" stroke="none"
      /><text fill="black" x="10" xml:space="preserve" y="12" clip-path="url(#clipPath69)" stroke="none"
      >1: Inicia a criação de uma tarefa</text
    ></g
    ><g font-size="8px" fill-opacity="1" fill="rgb(120,120,120)" text-rendering="geometricPrecision" image-rendering="optimizeQuality" stroke="rgb(120,120,120)" stroke-opacity="1"
    ><text x="0" xml:space="preserve" y="10" stroke="none"
      >Visual Paradigm Standard(1182115(Instituto Superior de Engenharia do Porto))</text
    ></g
  ></g
></svg
>
